Aachen
Aalborg
Aarhus
Aaron
Aarskog
Aase
Abbas
Abbe
Abbott
Abbottabad
Abdel-Khalek
Abderhalden
Abel Ayerza
Abele
Abell
Abelson
Abely
Abercrombie
Aberdeen
Aberdeenshire
Abernethy
Abidjan
A. Biedl
Abigail
Abilene
Abraham
Abraham L. Levin
Abram
Abrami
Abrams
Abraxas
Abrikossoff
Abruzzo
Abu Dhabi
Abu Dhabi Emirate
Abu Hamed
Abuja
Abyssinia
Acapulco
Acar
Accra
A. Cecil Alport
Achilles
Ackerman
Acosta
Acropolis
Actis
Acton
Adachi
Adam
Adamantiades
Adamawa
Adamkiewicz
Adams
Adar
Addis Ababa
Addison
Adelaide
Adelphia
Aden
Adie
Adkins
Adler
Admiralty Island
Adolf
Adolph
Adolphus
Adonis
Adria
Adrian
Adriatic
Adriatic Sea
Adson
Aeolus
Aesculap
Aesculap-Meditec
Afghan
Afghanistan
Africa
Agarwal
Agnes
Agnew
Agogo
Agra
Agre
Agreste
Ahmadi
Ahrens
Ahsan
Ahumada
Aicardi
Aichi
Aiolos
Airedale
Aix en Provence
Akabane
Akamatsu
Ake
Akiba
Akita
Akpek
Akron
Alabama
Alagille
Alagoas
Alain
Al Ain
Alajouanine
Alameda
Alamo
Alan
Aland
Aland Islands
Alani
Alary
Alaska
Alaskan
Alastair
Alban
Albania
Albany
Albee
Albers
Albert
Alberta
Albert F. S. Kent
Albert Touraine
Albin
Albion
Albright
Albuquerque
Alcalde
Alcazar
Alder
Alderly
Alderney
Alderney Island
Alderson
Aldine
Aldo Castellani
Aldred
Aldrete
Aldrich
Aldridge
Alentejo
Aleppo
Aleut
Aleutians
Alex
Alexa
Alexander
Alexander Duane
Alexander Fleming
Alexander J. C. Skene
Alexander of Tralles
Alexander Trallianus
Alexandra
Alexandre Couvelaire
Alexandria
Alexandrian
Alfonso
Alfred
Alfred Adler
Alfred Blalock
Alfred Duhrssen
Alfred Eddowes
Alger
Algeria
Algerian
Algiers
Alibert
Alice
Alicia
Alison
al-Jarrah
Alken
Alkermes
Allahabad
Allan
Allemand
Allen
Allene
Allen & Hanburys
Allentown
Allergan
Allergopharma
Allgrove
Alma
Almería
Alonzo
Alpers
Alpes-Maritimes
Alpheus
Alport
Alps
Alsatian
Al-Sheikhly
Alstrom
Altai
Altai Mountains
Altai Republic
Altemeier
Altex
Altin
Altiplano
Altman
Alto
Alto Beni
Alton
Alvarez
Alzheimer
Amabile
Amadori
Amalric
Amami-Oshima
Amami-Oshima Island
Amana
Amanda
Amani
Amarillo
Amato
Amazon
Ambard
Ambler
Ambo
Ambrose
Amende
America
American Cancer Society
Amersham
Ames
amicon
Amida
Amidon
Amiens
Amin
Amir
Amman
Ammann
Ammon
Amos
Amplatz
Amplatzer
Amreich
Amritsar
Amsel
Amsler
Amy
Amzel
Analytab
Anan
Anatolia
Anatoly
Ancona
Andaman
Andean
Andermann
Andersen
Anderson
Andes
Andorra
Andrade
Andrea
Andrea Doria
Andreasen
Andrew
Andries
Andry
Andy
AneuRx
Angelchik
Angeli
Angelman
Angelo Dubini
Angelo M. DiGeorge
Angelucci
Angerer
Anglesey
Anglia
Anglican
Anglo-American
Angola
Angra dos Reis
Angstrom
Angulo
Angus
Anhui
Animal and Plant Health Inspection Service
Anita
Anjou
Ankara
Anker
Ankole
Ann
Anna
Annan
Annapolis
Ann Arbor
Anne
Annie
Anrep
Antal
Antalya
Antananarivo
Antarctica
Anthony
Antia
Antibes
Antich
Anticoli
Antietam
Antigua
Antin
Antioch
Antiqua
Antley
Anton
Anton Biermer
Anton Ghon
Antonia
Antonio
Antony
Antopol
Antunes
Antwerp
Anubis
Anyang
Aoyama
Apennines
Apert
Apgar
APHIS
Aphrodite
Apley
Apligraf
Apollo
Apostoli
Appalachians
Appel
Appelbaum
Appenheim
Applebaum
April
Aquarius
Aquilina
Aquitaine
Arab
Arabia
Arabin
Arad
Aran
Aranda
Arango
Arantius
Araraquara
Araucan
Arber
Arcadia
Archer
Archimedes
Arctic
Ardennes
Ardran
Arethusa
Argentina
Argonne
Argos
argyll
Ariadne
Arias
Aride
Aride Island
Aristotle
Arizona
Arkansas
Arlington
Armand
Armanni
Armenia
Armenian Soviet Socialist Republic
Armidale
Armour
Armstrong
Arnaldo Angelucci
Arnaud
Arndt
Arneth
Arnold
Arnold L. Heller
Arnold Pick
Arnold Rice Rich
Arnstein
Arock
Arran
Arrhenius
Arris
Arrowsmith
Arslan
Arthrex
Arthrotek
Arthur
Arthur Thost
Arthur Whitfield
Arthus
Aruba
Arusha
Asada
Asahi
Asahikawa
Asberg
Asbest
Ascher
Aschheim
Aschoff
Asclepios
Ascot
Ashby
Ashford
Ashkhabad
Ashman
Ashraf
Ashworth
Asia
Askari
Aspen
Asperger
Assad
Assman
Assyria
Asta Medica
Astler-Coller
Astley P. Cooper
Aston
Astrakhan
AstraZeneca
Astrup
Asturias
Asunción
Ataman
Atasoy
Athabasca
Athabasca River
Athena
Atkin
Atkins
Atkinson
Atlanta
Atlantic
Attal
Attwood
Auber
Auberger
Auckland
Audi
Audouin
Auer
Auerbach
Aufranc
Aufrecht
Augsburg
Augsburger
August
Augusta
August E. Martin
Auguste Queyrat
Augustine
Augustus
Augustus Roi Felty
Aujeszky
Austin
Austin Flint
Australasia
Australia
Austria
Auvergne
Avalon
Avalon Peninsula
Avant
Avellino
Avery
Avicenna
Avogadro
Avon
Awaji
Awaya
Axelrod
Axenfeld
Ayerst
Ayerza
Aylesbury
Aylesbury Vale
Ayre
Ayrshire
Azerbaijan
Azerbaijan Soviet Socialist Republic
Azores
Azusa
Baar
Baba
Babbitt
Babcock
Babel
Babinski
Babson
Babylonia
Bacchus
Bach
Bacharach
Bachman
Bachmann
Backer
Backus
Bactria
Badajoz
Badalona
Baden
Baden-Wuerttemberg
Bad Gastein
Bad Homburg
Baer
Baerveldt
Baffes
Baggerly
Baghdad
Bagolini
Bagshawe
Bahama Banks
Bahama Islands
Bahamas
Bahia
Bahia Blanca
Bahrain
Bahr El Ghazal
Baikal
Bailer
Bailey
Baillarger
Bailly
Baily
Bain
Bainbridge
Baker
Baku
Balboa
Baldwin
Baldy
Bali
Balint
Balkan
Balke
Balkhash
Balkwill
Ballantyne
Ballard
Baller
Ballinger
Balo
Balter
Baltics
Baltimore
Baly
Bamako
Bamberg
Bamberger
Bamford
Banaras
Bandala
Bandar-Abbas
Bandi
Bandiagara
Bandolier
Bangalore
Bangkok
Bangle
Bangor
Bangui
Bani-Sadr
Bankart
Bannick
Bannwarth
Banti
Banyuls-sur-Mer
Banzi
Bar
Barad
Baragwanath
Baraitser
Baraldi
Baran
Barangay
Baranton
Barany
Barba
Barbados
Barbara
Barbara McClintock
Barbary
Barbate
Barbe
Barbet
Barbier
Barbin
Barbone
Barbuda
Barcelona
Bardet
Bareilly
Baretta
Bari
Barie
Barisal
Barish
Barkan
Barkly
Barkly Tableland
Barlow
Barnard
Barnes
Barney
Barnsley
Baron
Barque
Barquisimeto
Barr
Barranquilla
Barraquer
Barratt
Barre
Barret
Barrett
Barron
Barry
Barsky
Bart
Barth
Barthel
Bartholin
Bartholomew
Bartholomew Rhodes
Bartlett
Barton
Bartram
Bartter
Basedow
Basel
Bashkortostan
Basilicata
Basil Martin Wright
Basingstoke
Basle
Basque Country
Basra
Bassan
Basse-Normandie
Bassett
Bassini
Basso
Basten
Batai
Batangas
Batchelor
Bateman
Bath
Batho
Bathurst
Batista
Baton Rouge
Batson
Batta
Batten
Baudelocque
Bauer
Baumann
Baume
Baumgarten
Baumgartner
Baur
Bavaria
Baxter
Baxter Hyland Immuno
Bayard
Bayard Taylor Horton
Bayern
Bayer-Sankyo
Bayes
Bayley
Bayliss
Baylor
Bayly
Baytech
BCDE
Beachy
Beadle
Beal
Beall
Beals
Beamer
Beamish
Beata
Beath
Beatrice
Beauvais
Beccari
Bechamp
Becher
Bechuanaland
Beck
Becker
Beckett
Beckmann
Beckwith
Beclard
Bede
Bedell
Bedford
Bedfordshire
Bedigian
Bednár
Beebe
Beecham
Beemer
Beese
Beethoven
Beevor
Begaud
Behcet
Behmel
Behn
Beiersdorf
Beigel
Beighton
Beijing
Bein
Beinert
Beintema
Beira
Beirut
Bekhterev
Belcher
Belcher Islands
Belem
Belfast
Belfast Lough
Belgium
Belgrade
Belk
Bell
Bella Coola Valley
Bellak
Belle
Belle Glade
Bellerophon
Belliardo
Bellini
Bellon
Bellona
Belmont
Belo Horizonte
Belsey
Belton
Beltsville
Belzer
Ben
Bena
Bencard
Bence
Benchekroun
Bender
Bene
Benedict
Benedikt
Benelux
Benesch
Bengal
Benguet
Benguet Province
Béni-Abbès
Benight
Beni Mellal
Benin
Beni-Ounif
Beni-Suef
Benito Juárez
Benjamin
Benjamin Sacks
Benn
Bennet
Bennett
Beno
Bensaude
Bentall
Bently
Benton
Benza
Benzon
Beograd
Beraud
Bere
Bere Stream
Berg
Bergama
Berge
Bergen
Berger
Bergeron
Bergey
Bergman
Bergmann
Bering
Beringia
Berke
Berkeley
Berkowitz
Berkshire
Berlese
Berlex
Berlin
Berman
Bermuda
Bern
Berna
Bernard
Bernardi
Bernard Lown
Berne
Bernese Oberland
Bernhardt
Bernheim
Bernoulli
Berridge
Bert
Bertha
Berthelot
Berthold
Bertini
Bertolotti
Bertram
Bertrand
Berzin
Besancon
Besnier
Bess
Best
Beth
Bethel
Bethesda
Bethlehem
Bethune
Betty
Beutler
Bevan
Bever
Beveridge
Beverley
Beverly
Beverly Hills
Bexley
Bey
Beyer
Bezold
Bhandari
Bhanja
Bhat
Bhutani
BIAcore
Bialy
Bialystok
Bianchi
Bianco
Bibb
Bible
Bicarbon
Bick
Bickel
Bickerstaff
Biebrich
Biedl
Bielefeld
Bielschowsky
Bienenstock
Bier
Biermer
Bietti
Bigelow
Biggin
Biggs
Bihar
Bikini
Bikini Atoll
Bilbao
Bilcock
Bilker
Billard
Biller
Billeter
Billings
Billingsly
Billman
Billy
Bilroth
Bimler
Binet
Bing
Bingen
Binswanger
Biocare
Biocoral
Bio-Dynamics
Biogen
Biomatrix
Biomed
Bion
Bioplant
Biorex
Biot
Biotrol
Biotronik
Birbeck
Birdsville
Birkenhead
Birmingham
Birnbaum
Bischoff
Bisco
Bismarck
Bissau
Bisson
Bito
Bitot
Bitterroot Range
Bitterroot Valley
Bizzozero
Bjork
Bjornstad
Black
Blackband
Blackett
Blackfan
Blackwood
Blacky
Blain
Blaine
Blair
Blake
Blakely
Blakemore
Blalock
Blanc
Blanca Bay
Blanchard
Blandin
Blantyre
Blase
Blatter
Blauth
Blick
Blinder
Bloch
Bloemfontein
Blomstrand
Bloodgood
Bloomington
Bloomsbury
Blount
Blumberg
Blumenbach
Blumenthal
Bly
Blyth
Boardman
Boari
Bobbin
Bobo-Dioulasso
Bocca
Bochdalek
Bocher
Bochum
Bock
Bockhart
Bocking
Böcking
Bodega Bay
Bodian
Boeck
Boehm
Boehringer
Boehringer Ingelheim
Boerema
Boerhaave
Bogaert
Bogalusa
Bogan
Bogart
Bogor
Bohemia
Bohle
Böhler
Bohn
Bohol
Bohr
Boise
Boivin
Bolivar
Bolivia
Bolk
Bolling
Bollman
Bologna
Bolton
Boltzmann
Boly
Bombay
Bondar
Bondy
Bonelli
Bongor
Bonn
Bonne
Bonnevie
Bonney
Bonnie
Bonny
Booker
Bookless
Boone
Bord
Bordeaux
border
Bordet
Borg
Boris
Borjeson
Borna
Borneo
Bosch
Bose
Bosk
Bosnia
Bosnia-Herzegovina
Bosset
Bosshard
Boston
Bosworth
Botallo
Botella
Botswana
Bottcher
Bottomly
Botucatu
Bouchard
Boucher
Bougainville
Bougainville Island
Bouin
Boulenger
Boulogne
Boulter
Bourdon
Bourke
Bourne
Bournemouth
Bove
Bovet
Bovie
Bowditch
Bowen
Bower
Bowery
Bowker
Bowman
Bowser
Bowyer
Boxtel
Boyden
Boyer
Boyle
Braak
Brabant
Brabant Island
Bracco
Brach
Brachet
Brachmann
Bracht
Brack
Brackett
Bradford
Bradley
Bradshaw
Brady
Bragard
Bragg
Braintree
Braly
Brandle
Brandon
Brandt
Brandywine
Branemark
Branham
Brantly
Brasilia
Bratislava
Brattleboro
Brauer
Braun
Braunschweig
Brayer
Brazil
Brazzaville
Breda
Breen
Bremen
Bremer
Bren
Brenda
Brenn
Brenner
Brent
Brentwood
Brescia
Breslau
Breslow
Brest
Bretagne
Bretonneau
Bretschneider
Brett
Breuer
Brewerton
Brewster
Brian
Bricker
Bridgeman
Bridger
Bridgewater
Brien
Brierly
Brigham
Brighton
Brill
Brindisi
Briner
Bringer
Brisbane
Brissaud
Bristol
Bristol-Myers Squibb
Bristow
Britain
Britannia
British Pharmacopoeia
British West Indies
Briton
Britt
Brittany
Britten
Brixton
Brno
Broads
Broadway
Broca
Broch
Brock
Brocker
Brockman
Brockton
Brocq
Brodén
Broders
Brodie
Brodmann
Brogan
Bromage
Bromley
Bromly
Brompton
Bronk
Brønsted
Bronx
Brook
Brooke
Brooklyn
Brooks
Brophy
Brot
Broughton
Broviac
Browman
Brown
Browne
Browning
Brown-Sequard
Bruce
Bruch
Bruckner
Brudzinski
Brueghel
Brugada
Bruggen
Bruininks
Brum
Brumpt
Brunauer
Brune
Brunei
Brunel
Bruner
Bruni
Brunner
Bruno
Bruns
Brunschwig
Brunsting
Brunswick
Brushwood
Brussels
Bruton
Bruxelles
Bryan
Bryant
Bucharest
Buchberg
Buchholz
Bucker
Buckingham
Buckinghamshire
Buckland
Buckler
Buckley
Bucy
Buda
Budapest
Budd
Buddha
Buddhist
Buddle
Buenaventura
Buenos Aires
Buerger
Buess
Buffalo
Buffy
Buhl
Buhr
Buisson
Bujadoux
Bulgaria
Bulkley
Buller
Bullock
Bunbury
Bungo
Bunina
Bunnell
Bunsen
Bunte
Bunter
Burbank
Burch
Burchard
Burd
Burdach
Burdwan
Bureau of Communicable Disease Epidemiology
Burgdorfer
Burge
Burger
Burgess
Burgi
Burgos
Burgundy
Burhenne
Burian
Burk
Burkina Faso
Burkitt
Burkly
Burlington
Burma
Burnham
Burnier
Burnside
Burny
Burow
Burrawang
Burrill B. Crohn
Burroughs Wellcome
Burt
Burton
Burton-upon-Trent
Buruli
Burundi
Busan
Buschke
Bush
Bushi
Bushwick
Busk
Buss
Butel
Butenandt
Buteyko
Butte
Buttner
Buzzi
Byar
Byard
Bydgoszcz
Byelarus
Byelorussia
Byelorussian Soviet Socialist Republic
Byelorussian S.S.R.
Byers
Bywaters
Byzantium
Caballero
Cabane
Cabot
Cabrol
Cacchi
Cacchione
Cade
Cadillac
Cadiz
Caen
Caernarvonshire
Caerphilly
Caesar
Caffey
Cage
Cagliari
Cahill
Cain
Caine
Cairns
Cairo
Cajal
Calabar
Calabria
Calais
Calam
Calcutta
Caldwell
Caleb
Caledonia
Calgary
Cali
California
Callaghan
Callander
Calleja
Callisto
Calmette
Calne
Calori
Calot
Caltech
Calve
Camargo
Camargue
Camargue Biosphere Reserve
Camberwell
Cambodia
Camborough
Cambridge
Cambridgeshire
Camden
Camembert
Cameron
Cameroons
Camey
Camino
Campana
Campanacci
Campanella
Campania
Campbell
Camperdown
Campinas
Campine
Campo Grande
Campos Basin
Campos do Jordao
Camus
Canada
Canadienne
Canavan
Canberra
Cancun
Cannes
Cannizzaro
Cantelli
Canterbury
Cantlie
Canton
Cantor
Cantrell
Cantril
Canty
Cape
CAPE
Cape Breton
Cape d'Aguilar
Capel
Capella
Capetown
Capitan
Caplan
Caplin
Capote
Capri
Caprio
Capron
Captiva Island
Carabelli
Caracas
Caraparu
Caravaggio
Carder
Cardiff
Cardin
Cardona
Caribbean
Carl
Carla
Carle
Carl Friderichsen
Carl Friedlander
Carl Henry Alstrom
Carlisle
Carl Jung
Carlos
Carlos Chagas
Carl Rogers
Carlsbad
Carlsberg
Carlson
Carlton
Carl W. L. Bruch
Carly
Carl Zeiss Meditec
Carman
Carmarthenshire
Carmel
Carmelite
Carmen
Carmichael
Carmona
Carne
Carney
Carnoy
Carolina
Caroline
Carolyn
Carpathians
Carpentier
Carper
Carr
Carraway
Carrie
Carri-Med
Carrington
Carroll
Carrow
Carson
Carteaud
Carter
Cartwright
Carty
Carus
Cary
Casablanca
Casal
Casanova
Casey
Casoni
Casper Bartholin
Cassady
Cassidy
Cassini
Cassini spacecraft
Cassino
Casson
Castellani
Castellano
Castellanos
Castellon
Casten
Castilla-La Mancha
Castillo
Castleman
Castries
Castro
Castroviejo
Casula
Catalina
Catalina Island
Catalonia
Catalunya
Catania
Catanzaro
Cates
Catherine
Catholicism
Catlin
Catterall
Caucasus
Caudle
Causey
Causse
Cauvery
Cavan
Cavanagh
Cave
Cavendish
Cayuga Lake
Ceara
Cecil
Cecilia
Celebes
Celebes Sea
Celeste
Cellano
Celsus
Center for Biologics Evaluation and Research
Centocor
Central Institute for the Deaf
Cephalonia
Cervantes
César
Cesare
Cestan
Ceylon
Chabot
Chaco
Chad
Chadwick
Chagas
Chalcedon
Challis
Chalmers
Chaly
Chamba
Chamberlain
Chambless
Chamorro
Champagne
Champagne-Ardenne
Champaign
Champy
Chanda
Chandigarh
Chandipura
Chandler
Chandra
Chandra X-Ray Observatory
Chanel
Chang
Changsha
Changuinola
Chantilly
Chao
Chapelle
Chapin
Chapman
Charcot
Chari
Chari-Baguirmi
Charing Cross
Charlene
Charles
Charles F. Taylor
Charles Jacques Bouchard
Charles L. Mitchell
Charleston
Charleville
Charlevoix
Charlie
Charlotte
Charlottesville
Charney
Charnley
Charolais
Charon
Charybdis
Chatelain
Chatham
Chatham Islands
Chattanooga
Chauffard
Chauliac
Chauvin
Chavany
Chay
Cheadle
Chechnya
Chediak
Cheju
Cheju Island
Chelsea
Cheltenham
Chen
Cheney
Chernigov
Chernobyl
Cheshire
Chessick
Chester
Chesterfield
Chetty
Cheval
Chevalier
Chiang
Chiang Mai
Chiang Rai
Chiapas
Chiari
Chiba
Chicago
Chichester
Chi-Chi
Chico
Chicot
Chien
Child
Childress
Chile
China
Chincoteague
Chincoteague Bay
Chincoteague Island
Ching
Chino
Chino Basin
Chinoin
Chios
Chiralpak
Chiriqui
Chiron
Chisholm
Chitose
Chittagong
Chittoor
Chitty
Choco
Chon Buri
Chon Buri Province
Chongqing
Chopart
Chopin
Choy
Chris
Christ
Christchurch
Christendom
Christensen
Christian Bohr
Christian Frederik Heerfordt
Christianity
Christiansen
Christmas
Christopher
Christopher Addison
Chu
Chubb
Chudley
Chugai
Chujo
Chukchi Sea
Chun
Chung
Churg
Chvostek
Cichowicz
Cillo
Cima Lake
Cincinnati
Cinderella
Civatte
Civetta
Clagett
Claisen
Clamart
Clapper
Clara
Clare
Claremont
Clarence
Clark
Claude
Claudia
Claudius
Clausen
Claussen
Clave
Clavin
Clayman
Clayton
Cleland
Clemens
Clementi
Clements
Clemetson
Clemmensen
Clemmer
Clemmons
Clemson
Clérambault
Clermont-Ferrand
Cleveland
Clifford
Clifford Wilson
Clifton
Climara
Clint
Clinton
Clopton Havers
Cloquet
Clore
Closs
Clothier
Cloutier
Cluj
Clutton
Clwyd
Clyde
Clydesdale
Coahuila
Coast
Coban
Cobb
Coburg
cocco
Cochran
Cochrane
Cockayne
Cockcroft
Cockett
Coddington
Codman
Coe
Coelho
Coffer
Coffey
Cogan
Coggins
Cohen
Cohn
Coimbra
Coit
Cokely
Coker
Colburn
Cole
Coleman
Coley
Colgate
Colin
coll
Colles
Collet
Colley
Collier
Collin
Collingwood
Collins
Colman
Colombia
Colombo
Colonna
Colorado
Colp
Colton
Columbia
Columbia Broadcasting System
Columbus
Colwell
Comas-Diaz
Comly
Commonwealth
Commonwealth of the Northern Mariana Islands
Como
Comores
Comores Archipelago
Comoro
Compere
complexion
Complutense
Compton
Comte
Conally
Conant
Confucius
Cong
Congo
Congress
Connaught
Connecticut
Conner
Connor
Conrad
Conradi
Conrad Milton Riley
Conroy
Constance
Constantin von Manakow
Convit
Coolen
Cooley
Coolidge
Coomassie
Coombs
Cooney
Cooper
Coopersmith
Copeland
Copeman
Copenhagen
Corah
Corbeil
Cordeiro
Cordoba
Corfu
Cori
Corino-Andrade
Corinth
Coriolis
Cormack
Cornelia
Cornelia de Lange
Cornell
Cornoldi
Cornwall
Coronado
Corrie
Corrigan
Corsica
Cortez
Corti
Cory
Cosenza
Costantini
Costa Rica
Costello
Coster
Costera
Cotard
Cote d' Ivoire
Cotswold
Cotter
Cottle
Couinaud
Coulter
County Antrim
County Cavan
County Kilkenny
Couper
Courvoisier
Coutelle
Couto Maia
Couvelaire
Covarrubias
Coventry
Covey
Cowan
Cowden
Cowdry
Cowper
Cowtown
Cox
Coxsackie
Crabtree
Craig
Craig-Scott
Craik
Crain
Crandall
Cranston
Crantz
Crawford
Crawley
Creation
Credé
Creighton
Creteil
Creutzfeldt
Creutzfeldt-Jakob
Crewe
Criegee
Crigler
Crimea
Crimmins
Crispin
Critchley
Criticare
Crocker
Croft
Crohn
Croker
Crome
Cromer
Cronbach
Crone
Crooke
Crosby
Crosier
Cross
Crossley
Crosti
Crouzon
Crowder
Crowell
Croyden
Crozier
Crump
Crutchfield
Cruveilhier
Cruz
Cuba
Cuesta
Cukurova
Cullen
Cully
Culp
Culver
Culver City
Culyer
Cumberland
Cumbria
Cummin
Cumming
Cummings
Cuppers
Curacao
Curie
Curitiba
curr
Currie
Currier
Curschmann
Curth
Curtis
Cush
Cushing
Custodis
Cutler
Cynthia
Cyriax
Cytic
Cytogen
Czechoslovakia
Dabska
Dacca
Dacie
DaCosta
Dada
Dade
D'Aguilar
Dahl
Dahlin
Daimon
Dain
Dakar
Dakin
Dakshina Kannada
Dale
Dalgarno
Dali
Dalian
Dallas
Dalman
Dalmau
Daloa
d'Alonzo
Damascus
Dameshek
Damietta
Dammam
Damus
Dana
Danderyd
Dandie
Dandy
Dane
Danforth
dang
Dangeard
Daniel
Danish National Service for the Mentally Retarded
Danish West Indies
Danks
Danlos
Danly
Danner
Danon
Dante
Dantec
Danube
Danzig
Darby
Dar es Salaam
Darien
Darier
Darjeeling
Darkschewitsch
Darlington
Darmstadt
Daroff
Darr
Darrach
Darrow
Dartmouth
Darwin
Darwish
Daryl S. Wilkinson
Datex-Ohmeda
Daumas
Daumas-Duport
Dausset
Dautrey
Dave
Davenport
Davey
David
Davidenkow
Davidian
Davidson
Davies
da Vinci
Davis
Davit
Davy
Dawbarn
Dawe
Dawes
Dawley
Dawson
Day
Dayal
Dayhoff
Dayton
Deaconess
Dearing
Deaver
De Backer
DeBakey
de Barsy
Deborah
Debre
Debrecen
de Bruijn
Debus
December
Dechaume
Decines-Charpieu
Decker
Deckman
de Duve
Deev
Degas
de Geer
Degen
De Gier
de Graaf
Dehong
Dehra Dun
Deily
Deimos
Deiter
Deiters
Dejerine
De Kruijff
de la Chapelle
Delaine
de la Motte
de Lange
Delany
Delaware
Delbrück
Del Castillo
DeLee
Delft
Delhi
Delilah
Delis
Delleman
Delling
Del Mar
del Nero
De Loof
Delorme
Delph
Delphi
Delphin
Delphine
Del Prete
del Rio-Hortega
Demianoff
Demidov
Demidova
Demin
Deming
Demirci
Demirhan
Demirjian
Dempsey
Denda
Denham
Denis
Denise
Denker
Denman
Denmark
Dennis
Dennis P. Burkitt
Denny
Denonvilliers
Denton
Denver
de Olmos
de Pezzer
Deptford
DePuy
Deray
Derby
Derbyshire
Dercum
Derek
de Reynier
Derogatis
Derringer
Derry
DerSimonian
DeSanctis
Descemet
Desmond
Detroit
de Unamuno
Deutscher
Deva
De Vega
Deventer
Devic
De Vilbiss
Devil's Tower
Devine
Devon
Devonshire
Devoto
de Vries
Dewar
Dewberry
Dewey
DeWitt
Dexter
Dey
Deyerle
Dhori
Diamond
Dian
Diana
Diane
Diaz-Barriga
Di Bella
Dicer
Dich Giao
Dick
Dickens
Dickenson
Dickey
Dickinson
Dickson
Dicon
Didier
didymus
Dieffenbach
Diego
Diels
Diesing
Dieterle
Dieulafoy
Di Genova
DiGeorge
Di Guglielmo
Dijkstra
Dijon
Dillon
Dilly
Dimas
Dimitri
Dina
Dingle
Dingwall
Di Noto
Diogenes
Dionex
Di Paolo
Disse
District of Columbia
Divis
Diwan
Dixie
Dixit
Dixon
Djakarta
Djibouti
Dneprodzerzhinsk
Dnepropetrovsk
Dnepropetrovsk Province
Dnieper
Dnieper River
Dobbins
Dobrava
Dobson
Dodrill
Doheny
Dohle
Dohlman
Doko
Dolder
Doleris
Dolin
Dollinger
Dolly
Dolman
Doly
Dombes
Dombrock
Dominica
Dominique
Domon
Donabedian
Donald
Donaldson
Dona Paula Bay
Donath
Donati
Donders
Donegal
Donetsk
dong
Donly
Don Marshall
Donna
Donnan
Donoghue
Donovan
Dooley
Doppler
Dor
Dorchester
doree
Dorex
Dorfman
doria
Dorian
Dorian Gray
Dorking
Dormia
Dorn
Dorner
Dorothy
Dorr
Dorr-Oliver
Dorset
Dortmund
Dory
Doty
Doudoroff
Dougherty
Douglas
Doupe
Dover
Dowd
Dower
Down
Downes
Dowson
Doyle
Doyne
Dracula
Drager
Dragstedt
Draine
Draper
Dray
Dreifuss
Drenthe
Dresden
Dreyer
Dreyfus
Drome
Drummond
Drysdale
Dschunkowsky
Duan
Duane
Duarte
Dubb
Dubin
Dubini
Dubinin
Dublin
Dubois
DuBois
Dubos
Dubowitz
Duchenne
Duckett
Duckworth
Dudgeon
Dudley
Duff
Duffy
Duhamel
Duhring
Duhrssen
Duke
Dukes
Dulbecco
Duluth
Dunbartonshire
Duncan
Dundas
Dundee
Dunedin
Dungeness
Dungeness River
Dunger
Dunker
Dunlap
Dunlop
Dunn
Dunne
Dunnigan
Dunning
Dunphy
Dunst
Dunstable
DuPan
DuPont
Dupre
Dupuy
Dupuytren
Duque de Caxias
Duran
Durand
Durand-Fardel
Duran-Reynals
Durant
Durban
Durbin
Duret
Durga
Durham
Durie
Durin
Dusart
Dusseldorf
Dutch Antilles
Dutra
Dutton
Duval
Duvall
Duvenhage
Duverney
Dux
Dwight
Dybowski
Dyer
Dyfed
Dzerzhinsk
Eagly
Eales
Ealing
Earnest
Earth
East
Easter
Easterlin
Eastern Cooperative Oncology Group
East Godavari
East Indies
East Lothian
Eastman
East Sussex
Eating Disorder Instrument
Eating Disorder Inventory
Eaton
Eaves
E. B. del Castillo
Ebenezer
Ebert
Ebstein
Eccles
Eching
Eck
Ecker
Eckhardt
Ecuador
Eddowes
Edelman
Edelson
Eden
Ederer
Edgar
Edinburgh
Edinburgh Pharmacopoeia
Edinger
Edison
Edith
Edman
Edmond
Edmonston
Edmonton
Edouard
Edouard Brissaud
Edouard Heinrich Henoch
Edward
Edward E. Mason
Edward Hallaran Bennett
Edward Mott Moore
Edwards
Edward Treacher Collins
Edwin H. Ellison
Eger
Eggar
Egger
Egly
Egypt
Ehlers
Ehmer
Ehrenberg
Ehrich
Ehrlich
Ehrmann
Eicher
Eichler
Eigen
Eijkman
Eikelboom
Eimer
Eindhoven
Einstein
Einthoven
Eire
Eisai
Eisenberg
Eisenmenger
Eisler
E. J. Moynahan
Ekbom
Ekman
Elaine
Elan
Elbe
El Carmen
Eld
Eldin
El Dorado
Eldridge
Electra
Elferink
Elgin
El Hierro
Eli K. Marshall
Eli Lilly
Elisabeth
Elizabeth
Elke
Elkins
Elkins-Sinn
Ellen
Ellesmere Island
Ellestad
Elliot
Ellis
Ellison
Ellman
El-Morra
Elmslie
Eloesser
el-Sadr
El Salvador
Elschnig
Elsinore
Elysium
Emanuel Libman
EMBASE
Emerick
Emerit
Emerson
Emilia-Romagna
Emily
Eminence
Emma
Emmental
Emmet
Emory
Empore
Endotak
Engel
Engerix
England
Engle
Englishman
Engman
Enright
Entner
Enzinger
Ephraim
Epirus
Epley
Eppendorf
Epping
Eppinger
Epstein
Erasmus
Erb
Erdheim
Erfurt
Eric
Erica
Erice
Erich Letterer
Erichsen
Erie
Erikson
Eriksson
Erin
Eritrea
Erlangen
Erlanger
Erlenmeyer
Erne
Ernest
Ernest Amory Codman
Ernst
Ernst Heller
Ernst K. Abbe
Ernst Moro
Eros
Escalante
Escher
Escherich
Esmarch
Espirito Santo
Essed
Essen
Essex
Estelle
Esterly
Estes
Estlander
Estonia
Ethan
Ethicon
Ethiopia
Etienne
Etienne Jules Bergeron
Etienne Lombard
Etobicoke
Etruria
Eubenangee
Eugene
Eugenia
Eugenio
Euler
Eurasia
Euratom
Eureka
Eurocare
Euro-collins
Europa
Europe
Eurotransplant
Eva
Evan
Evans
Evanston
Evansville
Eve
Evelyn
Everglades
Everly
Evers
Ewald
Ewer
Ewers
Ewing
Excalibur
Excerpta Medica
Exeter
Exmoor
EXTRAMED
Extremadura
Eyer
Eyre
Eysenck
F. A. Aran
Faber
Fabian
Fabre
Fabricant
Fabry
Faden
Fadly
Faeroe Islands
Faeroes
Fager
Fagerstrom
Fahraeus
Fairbank
Fairbanks
Fairbrother
Falk
Falkland Islands
Falklands
Fallopius
Fallot
Fanconi
Fanger
Fannin
Fanny
Fanon
Fant
Fanti
Farabeuf
Faraday
Farag
Farber
Farde
Fardel
Farfel
Fargo
Farina
Farinas
Farley
Farnham
Faro
Farrand
Farrell
Farthing
Fasanella
Fass
Father
Fatima
Fauchard
Faust
Favre
Fawcett
Fay
Fazio
F. Baller
Featherstone
February
Fechtner
Fedor
Fehling
Feil
Feingold
Feinstein
Feist
Feldman
Feldsher
Felix
Feller
Felty
Fely
Fendly
Fendt
Fenger
Fengjing
Fennelly
Fenton
Ferdinand
Ferdinand Zinsser
Ferguson
Fergusson
Ferlo
Fermo
Ferrara
Ferrari
Ferraton
Ferrer
Ferreti
Ferretti
Ferri
Ferrier
Ferring
Ferring Pharmaceuticals
Ferris
Feucht
Feulgen
Fez
F. Hermansky
Fick
Fidia
Fiedler
Fielder
Fife
Fiji
Filatov
Filippi
Filippo
Filkins
Filmer
Finegold
Fineman
Finet
Finistère
Finkel
Finkeldey
Finland
Finlay
Finn
Finney
Finochietto
Finsen
Firestone
Firkin
Firth
Firth of Clyde
Fisch
Fischer
Fischhoff
Fiscus
Fishbein
Fisher
Fishman
Fisk
Fisons
Fitch
Fitchew
Fitz
Fitzpatrick
Fitzsimmons
F. J. Darier
Flanders
Fleer
Fleischer
Fleisher
Fleming
Flesher
Fletcher
Fleury
Flexner
Flieringa
Fliess
Flinders
Flinders Island
Flint
Flix
Florence
Florent
Flores
Florey
Florida
Florschutz
Flory
Floyd
Foerster
Fogarty
Folch
Foley
Folin
Follmann
Folstein
Foltz
Fomon
Fontaine
Fontan
Fontana
Foochow
Foody
Forbes
Fordyce
Formby
Formentera
Formosa
Forrest
Forsius
Forssman
Forster
Fortaleza
Fortin
Fortner
Fort Ripley
Fosse
Foster
Foster Kennedy
Fothergill
Fourier
Fournier
Foville
Fowler
Fox
Fraccaro
Fraenkel
Fraley
Framingham
Fran
France
Frances
Franceschetti
Franche-Comte
Franches-Montagnes
Francis
Franciscan
Francisco
Francisco Duran-Reynals
Francis John Shepherd
Franck
Franco
Francois
Frangenheim
Frank
Frankel
Frankenhauser
Frankfort
Frankfurt
Frankl-Hochwart
Franklin
Franz Chvostek
Franzén
Franz Konig
Franz Ziehl
Frappier
Fraser
Frasier
Frater
Frateur
Fraumeni
Fraxinus
Frazer
Frazier
Fred
Freda
Frederic
Frederic Edward Mohs
Frederic Justin Collet
Frederick
Fredericksburg
Frederickson
Frederik
Frederiksberg
Frederiksborg
Frederiksen
Fredet
Fredrickson
Freedman
Freeman
Frei
Freiberg
Freiburg
Frejka
Fremy
French Antilles
Frenchman
French West Indies
Frerichs
Fresenius
Fresnel
Fresno
Freud
Freund
Frey
Freyer
Friary Lough
Friday
Friderichsen
Friedberg
Friedel Pick
Friedenreich
Friedlander
Friedman
Friedreich
Friedrich
Friedrich Curtius
Frieldel-Crafts
Friese
Friis
Frisby
Frisch
Fristoe
Frith
Fritsch
Fritz
Fritz de Quervain
Fritze
Fritz Waldemar Rasmussen
Frohlich
Froin
Froment
Frommel
Frontignan
Froom
Frosch
Frostig
Frush
Fuchs
Fuerteventura
Fuhrman
Fuji
Fujian
Fujikawa
Fujimoto
Fujimura
Fujino
Fujisawa
Fujita
Fukami
Fukuda
Fukui
Fukuoka
Fukutomi
Fukuyama
Fulgence Raymond
Fullerton
Fulling
Fulton
Funen
Fung
Funke
Furlong
Furness
Furth
Fuster
Fyke
GA
Gabel
Gabon
Gaboon
Gabriel
Gaddum
Gade
Gaelic
Gaenslen
Gaertner
Gage
Gail
Gainesville
Gaisbock
Gajdusek
Galant
Galapagos
Galeazzi
Galen
Galera
Galicia
Galilee
Galileo
Gallager
Galle
Gallo
Galloway
Gallup
Gallup Organization
Gally
Galveston
Galway
Gamba
Gambia
Gambian
Gambier Islands
Gambino
Gamgee
Gamna
Gandy
Ganesa
Gange
Ganjam
Ganong
Ganser
Gansu
Ganymedes
Ganzfeld
Garbe
Garcia
Garcon
Gardiner
Gardner
Gardon
Garfield
Garfinkel
Garg
Garibaldi
Garin
Garlock
Garner
Garnier
Garran
Garre
Garren
Garrod
Garth
Gartner
Garvie
Gary
Gascoyne
Gaslini
Gasparol
Gasser
Gastaut
Gatehouse
Gates
Gathercole
Gatling
Gattinoni
Gaul
Gault
Gaur
Gaustad
Gaut
Gauthier
Gavini
Gay
Gayet
Gaynor
G. B. A. Duchenne
G. C. W. James
Gdansk
Gdynia
Gebauer
Gebbie
Geelong
Geer
Gehan
Gehrig
Geiger
Geigy
Geistlich
Geitler
Gelder
Gelderland
Gelinas
Gelineau
Gelman
Gelsenkirchen
Gena
GenBank
Genco
Genentech
Genet
Geneva
Gengou
Genoa
Genolier
Genova
Genovese
Gensini
Gent
Gentil
Gentile
Gentilly
Genzyme
Geoffrey
Geomedic
Georg C. Perthes
George
George Emil Palade
George F. Still
George Grey Turner
George Huntington
George P. Sayre
Georgetown
Georgi
Georgia
Gerald
Gerard
Gerber
Gerhard
Gerhard A. Hansen
Gerlach
Gerlier
Germain
Germany
Germed
Germiston
Gerner
Gerold
Gerota
Gerrard
Gerry
Gerstmann
Gertrud
Gertrud Hurler
Gervais
Geser
Gettysburg
Gey
Geyer
Ghana
Gharbia
Ghazal
Ghazi
Ghent
Ghetti
Ghon
G. Hurler
Giacomini
Giannini
Gianotti
Gianturco
Gibbs
Gibney
Gibraltar
Gibson
Giedion
Giemsa
Gierke
Giessen
Gigot
Gigot de La Peyronie
Gilbert
Gilchrist
Gilden
Gilder
Gilead
Gilead Sciences
Giles
Gilford
Gillen
Gilles
Gilles de la Tourette
Gillespie
Gillette
Gilli
Gilliam
Gillian
Gillies
Gilly
Gilman
Gilmore
Gilmour
Gimbernat
Gimenez
Ginsberg
Giovanni
Giovannoni
Girard
Girdlestone
Girling
Girons
Gissane
Gitelman
Gittes
Gitzelmann
Giustina
G. Kenneth Mallory
Gladen
Gladstone
Glamorgan
Glanzmann
GlareTester
Glaser
Glasgow
Glasier
Glasser
Glassman
Glatter
Glauber
Glaxo
GlaxoSmithKline
Glazer
Gleason
Glenn
Glenner
Glick
Glisson
Gliwice
Gloria
Glorioso
Gloucester
Gloucestershire
Glover
Gluck
Gmelin
Goa
Gobi
Gobi Desert
Gobra
God
Godavari
Goddard
Godfrey
Godkin
Godson
Goeckerman
Goeldi
Goeze
Goff
Gola
Gold
Goldberg
Goldblatt
Goldenhar
Goldflam
Goldie
Goldilocks
Goldin
Golding
Goldman
Goldmann
Goldner
Goldney
Goldscheider
Goldsmith
Goldspink
Goldstein
Goldstone
Goldthwait
Gole
Golfo Dulce
Golgi
Goliath
Golombok
Goloubatz
Goltz
Goman
Gomco
Gomez
Gomori
Gompertz
Gonatas
Gonen
Gongora
Goni
Gonin
Gonzales
Good
Goodell
Goodfellow
Goodman
Goodpasture
Goodwin
Goody
Goodyear
Goon
Goran
Gorce
Gordon
Gordon Morgan Holmes
Gorgas
Gorham
Goris
Gorki
Gorlin
Gorman
Goshen
Goss
Gossard
Gosselin
Gotch
Goteborg
Gothenburg
Göttingen
Gottron
Gottschalk
Gougerot
Gough
Goulet
Gourdie
Gourdy
Gourlay
Gove
Gowda
Gower
Gowers
Goy
Goyrand
Graber
Grace
Gracely
Graf
Graff
Graham Steell
Grampian
Granada
Grand Bahama
Grand Bahama Island
Gran Dolina
Grange
Grantly
Gräsbeck
Grasser
Grassi
Graves
Gravlee
Grawitz
Gray
Grayson
Graz
Grazier
Great Basin
Great Britain
Greater Antilles
Greater Sunda Islands
Greathouse
Great Island
Great Yarmouth
Greece
Green
Greenberg
Greene
Greenfield
Greenland
Greenspan
Green Turtle Cay
Greenville
Greenwood
Greer
Gregg
Grego
Gregory
Greig
Greisen
Greither
Grenada
Grenadines
Grenoble
Greulich
Grey
Gridley
Griess
Griffin
Griffith
Grimaldi
Grimelius
Grimm
Grinker
Griscelli
Grisel
Griss
Gritti
Groenouw
Groff
Grogan
Gronblad
Gronenborn
Groningen
Groot
Groshong
Gross
Grossman
Grossmann
Grote
Groucho
Grover
Grozny
Gruber
Grubmeyer
Gruca
Grumet
Grundel
Grünwald
Gruss
Grynfelt
Guadalajara
Guadalcanal
Guadeloupe
Guam
Gua Musang
Guana
Guanacaste
Guanacaste Province
Guanarito
Guangdong
Guangdong Province
Guangxi
Guangzhou
Guantanamo
Guara
Guarneri
Guatemala
Guayaquil
Guayas
Gubler
Gude
Guepar
Guerin
Guernsey
Guggenheim
Guiana
Guidonia
Guidor
Guilding
Guillain
Guillaume
Guillaume Dupuytren
Guillem
Guillemin
Guillemot
Guinea
Guinea-Bissau
Guizhou
Gujarat
Gujarati
Gujranwala
Gulden
Gulf of Darien
Gullstrand
Gully
Gumboro
Gunderson
Gunn
Gunter
Gunther
Gupta
Gurr
Guss
Guthrie
Gutmann
Guttler
Guyana
Guy de Chauliac
Guyon
Guyton
Guze
Gwalior
Gwent
Gwynedd
Haagensen
Haak
Haar
Haarlem
Haase
Haber
Haberly
Haberman
Habermann
Hachinski
Hacker
Hackler
Hackman
Hackney
Hader
Haeckel
Haenszel
Haff
Hagar
Hagberg
Hagedorn
Hageman
Hagen
Hagerstown
Hahn
Haidinger
Haikal
Hailey
Hainan
Haines
Haining
Haiphong
Haiti
Hajdu
Hajek
Hakata
Hakata Bay
Hakim
Halal
Halban
Haldane
Haley
Halifax
Halim
Hall
Hallam
Hallberg
Halle
Haller
Hallermann
Hallervorden
Hallgren
Halliday
Halling
Hallman
Hallopeau
Halloween
Hallpike
Halm
Halsey
Halstead
Halsted
Haly
Haly Abbas
Ham
Hama
Hamadan
Hamamatsu
Hamburg
Hamburger
Hamel
Hamer
Hamerly
Hamet
Hamid
Hamilton
Hamilton Othanel Smith
Hamilton Thorne
Hamilton Thorne Research
Hamlyn
Hamman
Hammerman
Hammond
Hampshire
Hampton
Hamza
Hancock
Handa
Handley
Hanford
Hanhart
Hank
Hanker
Hanks
Hanlon
Hanly
Hanna
Hannah
Hannover
Hanoi
Hanot
Hanover
Hans Chiari
Hansel
Hansen
Hans Gunther
Hanson
Hans Reiter
Hans Rudolf Wiedemann
Happle
Hara
Harada
Harare
Harbin
Harding
Hardinge
Hardman
Hardy
Haring
Harken
Harkness
Harle
Harlem
Harmsen
Harold
Harold G. Scheie
Harold Hirschsprung
Harold Newton Cole
Harow
Harper
Harrington
Harris
Harrisburg
Harrison
Harry
Harry Fitch Klinefelter, Jr.
Harry Shwachman
Harter
Hartford
Hartigan
Hartley
Hartly
Hartman
Hartmann
Hartnup
Harvard
Harvey
Harvold
Hasan
Hasegawa
Hasharon
Hasher
Hashimoto
Haskell
Hasner
Hassal
Hasse
Hasselbach
Hassler
Hastings
Hatano
Hatcher
Hatchett
Hatchikian
Hately
Hatfield
Hatter
Haugh
Haupt
Hauptmann
Hausen
Hauser
Hausmann
Haute-Normandie
Haut-Ogooue
Havana
Havana City
Havana Province
Havel
Haver
Haverhill
Havers
Hawaii
Hawaiian
Hawker
Hawkins
Hawley
Hawthorne
Hayashi
Haye
Hayes
Hayling
Hayward
Hazelwood
Hazen
Heaf
Heald
Healthcare Management Alternatives
Health Effects Institute
Heaney
Hearst
Heathrow
Heathrow Airport
Hebei
Heberden
Hebra
Hebrides
Heckler
Hedlund
Heerfordt
Heide
Heidelberg
Heidenhain
Heilbronner
Heilmeyer
Heimann
Heimer
Heimlich
Heine
Heinecke
Heineke
Heinrich
Heinrich Ludwig Ferdinand Robert
Heinz
Heister
Helal
Helen
Helena
Helen Brooke Taussig
Helico
Heller
Hellinger
Helly
Helmstein
Helsingfors
Helsinki
Helvetia
Helwig
Hely
Hemingway
Hemmer
Henan
Hench
Henderson
Henderson-Hasselbach
Hendra
Heng
Henis
Henle
Henley
Henleys
Henly
Henmon
Henneberg
Hennebert
Hennekam
Hennes
Henning
Henny
Henoch
Henri
Henricus
Henri Touraine
Henry
Henry A. Martin
Henry Burton
Henry H. Turner
Henschen
Hensen
Henshaw
Henson
Heraeus Kulzer
Herbert
Herbst
Hercules
Herdman
Herefordshire
Hering
Heriot
Herlitz
Herman
Hermann
Hermann Boerhaave
Hermansky
Hermes
Herophilus
Herovici
Herr
Herren
Herring
Herrington
Herrlich
Herrmann
Herschel
Hertel
Herter
Hertfordshire
Herts
Hertwig
Herzegovina
Herzen
Heschl
Hess
Hesse
Hesselbach
Hessen
Heubner
Heumann
Hewer
Hewlett
Hewlett-Packard
Heyde
Heyden
Heyer
Heyman
Heymann
Heywood
Hibbs
Hickey
Hickman
Hidalgo
Higashi
Higgins
Highborne Cay
Highkin
Highman
Highmore
High Wycombe
Hilbert
Hilda
Hildebrand
Hildebrandt
Hilding
Hilgenreiner
Hill
Hiller
Hillman
Himalaya
Himalayas
Himeji
Hinderer
Hinduism
Hindustani
Hines
Hinsdale
Hinton
Hinuma
Hippocrates
Hippolyte Cloquet
Hippuran
Hirano
Hirling
Hirosaki
Hirose
Hiroshima
Hirsch
Hirschfeld
Hirschsprung
His
Hispanic
Hispaniola
Hitchcock
Hobart
Hobbes
Hobbs
Hobel
Hoboken
Hobson
Hochmair
Hochmair-Desoyer
Hochstein
Hockley
Hodge
Hodgkin
Hodgson
Hodkinson
Hoehn
Hoff
Hoffa
Hoffman
Hoffmann
Hoffmann-La Roche
Hofmeister
Hogan
Hogness
Hoguet
Hoigne
Hokkaido
Holdeman
Holden
Holl
Hollaender
Holland
Hollande
Hollander
Holley
Holliday
Hollingshead
Hollister-Stier
Hollywood
Holm
Holmes
Holmgren
Holstein
Holt
Holter
Holtzman
Holub
Holzer
Homans
Homburg
Homer
Honda
Honduran
Honduras
Honeycutt
Hong Kong
Honiara
Honig
Honjo
Honolulu
Honshu
Hoofddorp
Hooper
Hoover
Hopewell
Hopkins
Hopsu-Havu
Hora
Horace
Horace Fletcher
Horii
Horikoshi
Horner
Hornsby
Horsely
Horsfall
Horsley
Hortega
Hortense
Horton
Horwich
Hosmer
Hosoya
Hospal
Hough
Houghton
Hoult
Hounsfield
Houston
Hout
Hoven
Howard
Howarth
Howe
Howel
Howell
Howe Sound
Hoy
Hoyer
Hoyle
Hradec Kralove
Hruby
Hruska
Hsiang
Hsu
Huang
Huanuco
Hubbs
Hubei
Huber
Hubert
Hübner
Huck
Huddersfield
Hudson
Huebner
Huerthle
Hufnagel
Hugh
Hughes
Hughling-Jackson
Hughston
Hugly
Hugo
HUGO
Huguenin
Huguier
Huhner
Hulusi Behcet
Human Genome Organisation
Humberside
Humboldt
Hummel
Humphrey
Humphries
Humphry
Humpty Dumpty
Hunan
Hunermann
Hungate
Hunner
Hunt
Hunter
Huntington
Huntly
Hunziker
Huriez
Hurler
Huron
Hurst
Hurter
Hurthle
Huschke
Huscke
Huse
Hussy
Hustler
Huston
Hutchings
Hutchinson
Huxley
Hyatt
Hybinette
Hyde
Hyderabad
Hyderbad
Hydrus
Hygeia
Hyland
Hyogo
Ian
Iasi
Ibadan
Ibaraki
Ibiza
IBMP
Iceland
Icely
Ichu River
Ida
Idaho
Idrija
Ifni
Ignatius
Ihara
Iles Comores
Ilesha
Ilheus
Ilizarov
Illawarra
Ille-et-Vilaine
Illinois
Ilocos
Ilocos Norte
Iloilo
Iloilo City
Imahori
Imanaka
Imerslund
Immunex
Immuno-Dynamics
Impra
Inca
Ince
Inchon
Incstar
Index Medicus
India
Indian
Indiana
Indianapolis
Indies
Indochina
Indonesia
Infratest
Infusaid
Inga
Ingbritt
Ingwavuma
Inkoo
Innsbruck
Inoue
Institute of Biomedical Problems
Intel
Interlaken
Interlingua
Interplanta
Interplast
Intervet
Intracel
Inverness
Inwood
Iolab
Iowa
Ipsen
Ipswich
Iran
Irani
Iraq
Ireland
Irena
Irene
Irian Jaya
Irkutsk
Irlen
Irma
Ironside
Irvine
Irving
Irving F. Stein
Irwin
Isaac
Isabel
Isabella
Isehara
Isehara City
Iselin
Isfahan
Ishigaki
Ishigaki City
Ishigaki Island
Ishijima
Ishikawa
Ising
Isis
Islam
Islay
Isle of Sheppey
Isle of Wight
Isles of Scilly
Isocal
Israel
Issacs
Isshiki
Istanbul
Isthmus of Darien
Istria
Italy
Itaya
Ito
Iva
Ivan
Ivanoff
Ivanova
Ivan Pavlov
Ivy
Iwate
Iyer
Iyo
Izhevsk
Izmir
Izumi
Izzard
Jabez North Jackson
Jaboulay
Jaccoud
Jackman
Jackson
Jacksonville
Jackwood
Jacob
Jacob Churg
Jacobs
Jacobsen
Jacobson
Jacobus
Jacobus Sylvius
Jacques R. Tenon
Jacquet
Jadassohn
Jaeger
Jaeken
Jaffa
Jaffe
Jager
Jahrmann
J. Aicardi
Jaipur
Jakarta
Jake
Jako
Jakob
Jaksch
Jamaica
James
James Alexander Adams
James Clarke White
James Douglas
James Homer Wright
James Paget
James Parkinson
James S. Collier
Jamestown
Jampel
Jamshedpur
Jan
Jane
Janet
Janeway
Jankowski
Jann
Jannetta
Janse
Jansky
Janssen-Cilag Ltd
January
Janus
Janvier
Jap.
Japan
Jaques
Jarman
Jarry
Jarvis
Jasmin
Jason
Jaspers
Jass
Jatene
Jatzkewitz
Java
Jawetz
Jay
J. C. Ahumada
J. Christ
Jean
Jean Athanase Sicard
Jean Baptiste Edouard Gelineau
Jean-Claude
Jean Cruveilhier
Jean Descemet
Jeanette
Jean Nageotte
Jebsen
Jeddah
Jefferies
Jefferson
Jeffery
Jeffrey
Jeffreys
Jeghers
Jehovah
Jelenko
Jellinek
J.E. Martin
Jembrana
Jenapharm
Jenkins
Jenner
Jennifer
Jenny
Jensen
Jeremy
Jerez
Jericho
Jerne
Jerome
Jerry
Jerusalem
Jervell
Jervis
Jesness
Jespersen
Jesse
Jessner
Jesus
Jew
Jewett
J. F. F. Babinski
Jiang
Jiangsu
Jiangsu Province
Jim
Jimmy
Jing
Jo
Joan
João Pessoa
João Pessoa City
Job
Jobe
Jobert
Joe
Joe Vincent Meigs
Joffe
Joffroy
Johann
Johann Conrad Brunner
Johannes
Johannesburg
Johann F. Horner
Johann Laurentius Gasser
Johannsen
Johannson
Johanson
John
John B. Barlow
John Braxton Hicks
John Bruce Beckwith
John Clarence Webster
John F. Crigler, Jr.
John L. H. Down
John Marshall
John Montgomery Baldy
John M. Wheeler
Johnny
Johnson
Johnston
Johnston Atoll
Johnstone
Johnston Island
Johnstown
Jolly
Joly
Jonah
Jonathan
Jones
Joplin
Jordan
Jorden
Jordens
Jorge Lobo
Jorgensen
Josef Marek
Joseph
Joshi
Joshua
Joslin
Joubert
Jourdain
Jove
Joyce
Juan
Juba
Judaism
Judas
Jude
Judet
Judith
Judy
Jukes
Jules
Jules Cotard
Jules Pean
Jules Tinel
Julia
Juliana
Julio
Julius
Julius Arnold
July
June
Juneau
Jung
Junge
Jungling
Junin
Junker
Jupiter
Jura
Jurkat
Justin
Justinian
Justin Marie Jules Jolly
J. Z. Laurence
Kaban
Kabivitrum
Kabul
Kader
Kadi
Kagera
Kagoshima
Kain
Kakamega
Kakamega District
Kakamega Forest
Kakar
Kalahari
Kalahari Desert
Kalama
Kalamata
Kalamazoo
Kalan
Kalgoorlie
Kali
Kaliningrad
Kalischer
Kallman
Kallmann
Kalmyk ASSR
Kalmyk Republic
Kalucy
Kamata
Kambin
Kamboh
Kamchatka
Kamchatka Peninsula
Kamei
Kamien
Kamienski
Kamigoto
Kamijo
Kamimura
Kaminer
Kamino
Kaminski
Kaminsky
Kamio
Kamioka
Kamisaka
Kamisar
Kamitani
Kamiya
Kamiyama
Kampong Cham
Kampuchea
Kanagawa
Kanavel
Kanawha
Kanazawa
Kandel
Kandinsky
Kandler
Kandori
Kandy
Kang
Kangra
Kangra District
Kangwon
Kangwon Province
Kankakee
Kanner
Kanof
Kansas
Kant
Kanter
Kantor
Kaohsiung
Kaplan
Kaposi
Kappe
Kapur
Karabakh
Karabeneck
Karachi
Karakul
Karch
Kardex
Karelia
Karen
Kariya
Karl Adolf Neelsen
Karl F. O. Westphal
Karlson
Karlsruhe
Karl T. P. P. Axenfeld
Karman
Karn
Karnataka
Karnofsky
Karposi
Karshi
Karshi Steppe
Kartagener
Karvonen
Kasabach
Kasai
Kasauli
Kaser
Kashi
Kashima
Kashimata
Kashmir
Kaslow
Kaspar
Kassebaum
Kassel
Kast
Kastner
Katagiri
Katanga
Katar
Kate
Kath
Katharina
Katherine
Katmandu
Kato
Katowice
Katsuki
Katsura
Katsura River
Katz
Kauai
Kaufman
Kaufmann
Kaup
Kawachi
Kawaguchi
Kawakami
Kawasaki
Kawashima
Kay
Kayser
Kazakhstan
Kazan
Kea
Kearn
Kearns
Keats
Keck
Kedah
Keele
Keeler
Keeve
Keewatin
Keferstein
Kegel
Kehr
Keighley
Keith
Keizer
Kell
Keller
Kellerman
Kelley
Kellogg
Kelly
Kelso
Kelso Mountains
Kelvin
Kemerovo
Kempf
Kempsey
Kenai
Kendal
Kendall
Kendall-Sheridan
Kenitra
Kenly
Kennedy
Kennelly
Kenner
Kennerly
Kenneth
Kent
Kentucky
Kenya
Kerala
Kerckring
Keren
Kerley
Kermit
Kern
Kerner
Kernig
Kerning
Kerr
Kerry
Kersey
Keshan
Kesling
Kessler
Kestenbaum
Ketapang
Kettering
Keuper
Keutel
Kevin
Kevorkian
Keyes
Khabarovsk
Khalifa
Khartoum
Kida
Kidd
Kidner
Kiel
Kielhofner
Kielland
Kiely
Kienbock
Kierkegaard
Kiev
Kikuchi
Kildare
Kiley
Kilham
Kilimanjaro
Kilkenny
Killarney
Killian
Kilner
Kiloh
Kim
Kimble
Kimmelstiel
Kimura
Kincardineshire
Kinch
Kinding Njabi
Kindler
Kingdon
Kingsman
Kingston
Kingstone
Kinnier
Kino
Kinshasa
Kintyre
Kinyoun
Kirby
Kirchhoff
Kirchner
Kirghizia
Kirgiz Republic
Kiribati
Kirk
Kirkby
Kirkcudbrightshire
Kirkham
Kirkman
Kirkpatrick
Kirlian
Kirman
Kirn
Kirovograd
Kirschner
Kirsten
Kirtland
Kirton
Kirwan
Kish
Kist
Kister
Kistler
Kitakyushu
Kitamura
Kittel
Kivu
Kjeldahl
Klaas
Klatskin
Klebs
Kleffner
Klein
Kleine
Kleinert
Klenow
Kligler
Klinefelter
Kling
Klinger
Klip
Klippel
Klöpfer
Klumpke
Kluver
Kluyver
Knapp
Kniest
Knoevenagel
Knop
Knops
Knorr
Knossos
Knoxville
Knudsen
Koan
Kobatake
Kobayashi
Köbberling
Kobe
Koblenz
Kobold
Koch
Kocher
Kock
Koda
Kodaly
Kodsi
Koebner
Koenig
Kogoj
Kohlberg
Kohler
Kohlrausch
Koh Samui
Kohut
Kojewnikow
Kola Peninsula
Kolle
Koller
Kolmogorov
Koln
Kommerell
Kondo
Kondoa
Kondoleon
Konig
Konigsberg
Konno
Konus
Koopman
Koopmans
Kopec
Kopelman
Koplik
Korat
Korea
Kornzweig
Korotkoff
Korsakoff
Korsmeyer
Koshland
Kostmann
Kostroma
Kota Baru
Koto-Ward
Kotwal
Kotyk
Kou Valley
Kowal
Kowanyama
Kowloon
Koyanagi
Kozlowski
Krabbe
Kraft
Krakow
Kral
Kramer
Krantz
Kraske
Krasnodar
Krasnoyarsk
Krause
Krauss
Kraut
Krebs
Kreis
Kremer
Kress
Kreuter
Kreutzer
Krimmer
Kris
Krishna
Krishna River
Krivoi Rog
Kroener
Krogh
Kronauer
Kroon
Krøyer
Kruger
Kruger National Park
Kruijff
Krukenberg
Krupin
Kruskal
Kuala Lumpur
Kuan
Kuba
Kuder
Kugel
Kugler
Kuhlman
Kula
Kulchitsky
Kulkarni
Kumamoto
Kumar
Kummel
Kummell
Kung
Kunitz
Kunming
Kupfer
Kupffer
Kupper
Kurashiki
Kurdistan
Kurer
Kurgan
Kuroki
Kurosawa
Kurstaki
Kurth
Kurtz
Kurtzke
Kurume
Kusano
Kushiro City
Kushner
Kussmaul
Kuster
Kustner
Kutler
Kuwait
Kuznetsov
Kveim
Kwale
Kwan
Kwangju
KY
Kyasanur Forest
Kyaw
Kyle
Kyoto
Kyowa
Kyowa Hakko Kogyo
Kyowa Medex
Kyrgyz
Kyrgyzstan
Kyushu
Laband
Labbé
Labhart
Labrador
Lacaze-Masmonteil
La Chapelle-aux-Saints
Lachman
Lackland
Ladakh
Ladd
Lader
Laemmli
Lafayette
Lafora
La Gomera
Lagos
Lagrange
Lahey
Lahore
Laily
Laing
Laird
Lake Athabasca
Lake Casitas
Lake Constance
Lake Elsinore
Lake Eyre
Lake Faro
Lake Fryxell
Lakeland
Lake Leman
Lake Macquarie
Lake Magadi
Lake Tahoe
Lake Tana
Lake Titicaca
Lake Vanda
Lake Vostok
Lakin
Laky
Laman
Lamarck
Lamaze
Lambert
Lambeth
Lambrinudi
Lambwe
Lambwe Valley
Lamm
la Motte
Lampron
Lamy
Lana
Lanarkshire
Lancashire
Lancaster
Lancereaux
Lancisi
Landouzy
Landre-Beauvais
Landry
Landsberg
Landsteiner
Laney
Lang
Langdon
Lange
Langely
Langenbeck
Langendorff
Langerhans
Langeron
Langle
Langmuir
Langton
Lanham
Lanier
Lansbury
Lansing
Lanterman
Lantian
Lanzarote
Lao PDR
Lao People's Democratic Republic
Laos
La Pampa
La Pampa Province
Lapides
Lapidus
Lapin
Laplace
Laplanche
Lapland
La Porte
Laramie
Lardy
Larin
La Rioja
Larkin
LaRoche
La Rochelle
Laron
Larry
Larsell
Larsen
Larson
Larsson
Lasegue
Lasher
Lask
La Spezia
Las Vegas
Latarjet
Latchman
Latimer
Latin
Latium
La Toma
Latreille
Latvia
Latzko
Lauber
Lauenstein
Lauer
Launay
Launois
Laurence
Laurentians
Lauretta Bender
Laurin
Lausanne
Lauter
Lauth
Lave
La Venta
Laver
Laveran
Lavin
Lawesson
Lawler
Lawly
Lawrence
Lawson
Laxova
Laysan
Laysan Island
Lazarus
Lazio
Leadbetter
Leal
Lear
Leary
Leath
Leavell
Lebanon
Leber
Le Blay
Le Bourg
Leboyer
Lechevalier
Lechuguilla
Leclerc
Lecompte
Ledderhose
Lederer
Lederle
Lednice
Lee
Leede
Leeds
Leese
Lefevre
LeFort
Le Fort
Léger
Legg
Legnano
Lehane
Lehman
Lehmann
Leibovitz
Leicester
Leicestershire
Leichtenstein
Leiden
Leifson
Leigh
Leighton
Leipzig
Leishman
Leiter
Leitz
Lejeune
Lejour
Lelystad
le Maire
Lemaire
Lemli
Lempert
Lenard
Lendrum
Lenin
Leningrad
Lennard-Jones
Lennert
Lennhoff
Lennon
Lennox
Lenz
Leo
Leo Buerger
Leo Kanner
Leon
Leona
Leonard
Leonardo Bianchi
Leonid
Leonidas
Leopold
Leopoldville
Lepre
Lequesne
Leriche
Lerman
Lermoyez
Lerner
Lesbia
Lesbos
Lesch
Lesley
Leslie
Lesotho
Lesser Antilles
Lesser Sunda Islands
Lesshaft
Lester
Letterer
Letterman
Leudet
Leunissen
Leunissen-Bijvelt
Leuven
Levaditi
Levant
LeVeen
Leventhal
Levin
Levine
Levinthal
Lew
Lewandowsky
Lewes
Lewis
Lexer
Leyden
Leydig
Leyland
Leyte
L. G. Courvoisier
L. Gole
Lhasa
Lhermitte
Li
Lian
Liang
Liaoning
Liberia
Libman
Libreville
Libya
Lich
Licht
Lichtenstein
Lichtheim
Liddle
Lido
Lieberkuhn
Liebermann
Liebig
Liechtenstein
Lief
Lieou
Liepmann
Lifecare
Lifely
Life-Tech
Lightman
Lignac
Liguria
Likert
Liley
Lille
Lillehammer
Lillehei
Lillian
Lillie
Lilling
Lilly
Lima
Limberg
Limerick
Limmer
Limoges
Lina
Lincoln
Lincolnshire
Lind
Linda
Lindau
Lindenberg
Linder
Lindholm
Lindqvist
Lindsay
Lineweaver
Linkoping
Linn.
Linnaeus
Linsenmayer
Linxian
Linz
Lionel
Lipetsk
Lipizzan
Lipizzaner
Lippa
Lippes
Lipschutz
Lisa
Lisbon
Lisch
Lise
Lisfranc
Liss
Lissauer
Lister
Lithuania
Litten
Little
Littlewood
Littre
Litz
Liu
Liv
Liverpool
Livesey
Livingston
Livingston Island
Liz
Ljubljana
Ljungdahl
Llano
Llobregat River
Lloyd
Lobo
Lobstein
Locarno
Loch Leven
Locke
Lockman
Lockwood
Lodz
Loffler
Löfgren
Loftus
Logan
Logie
Loire
Lois
Loki Patera
Loma Linda
Lombard
Lombardy
Lombok
Lombok Island
Lond.
Londe
London
Londonderry
Longe
Longmire
Loo
Loony
Loos
Lopez
Lopez-Brea
Lopez-Hernandez
Lo Prete
Lorain
Lorenz
Lorenzo
Lorge
Lori
Lorimer
Los Angeles
Lotheissen
Lothian
Lotte Strauss
Lotto
Lou
Louden
Lough Feeagh
Lough Neagh
Louis
Louis Felix Terrier
Louis Hamman
Louisiana
Louis Klein Diamond
Louisville
Lovelock
Lovett
Lovset
Lowder
Lowe
Lowenstein
Lower Saxony
Lowery
Lown
Lowry
Lowy
Lubbock
Lubeck
Lucas
Luce
Lucerne
Lucet
Luciano Armanni
Lucifer
Lucio
Lucke
Lucknow
Lucy
Ludden
Ludwig
Ludwig Bruns
Ludwigshafen
Lue
Lugol
Luis
Luisi
Luke
Lula
Lully
Lumbley
Lund
Lundbeck
Lundborg
Lundy
Lunel
Lunn
Lunt
Luo
Luria
Lurie
Lusaka
Luschka
Lustig
Luth
Luton
Luxembourg
Luys
Luzon
Lvov
Lyell
Lyme
Lynch
Lynn
Lynne
Lyon
Lyons
Lysholm
Maastricht
Mably
MacAndrew
Macao
Macartney
Macau
MacBeth
Macchi
Macclesfield
Macedonia
Macer
MacEwen
Machado
Machan
Machida
Machin
Macintosh
Mack
MacKie
Macklin
MacLachlan
MacLeay
Macleod
Macmillan
MacMurray
Madagascar
Madaus
Maddox
Madeleine
Madelung
Mader
Madiera
Madison
Madoera
Madras
Madrid
Madrigal
Madsen
Maduro
Mae
Maeda
Maffucci
Mafia Island
Magan
Magaziner
Magdeburg
Magenis
Maghreb
Magill
Magnes
Magnitogorsk
Magnus
Magnuson
Mahaim
Maharaj
Mahdi
Mahidol
Maia
Maier
Maillard
Maimonides
Maine
Maintenon
Mainz
Maisto
Majewski
Majid
Majocchi
Majorca
Makassar
Maki
Malabar
Malabar Coast
Malacca
Malaga
Malagasy Republic
Malassez
Malawi
Malaya
Malaysia
Malcolm
Maldives
Malecot
Malet
Maley
Malgaigne
Mali
Malik
Malis
Malison
Mallick
Mallinckrodt
Malling
Mallorca
Mallory
Malm
Malmo
Malone
Malta
Maltby
Malthusian
Maly
Manado
Managua
Manakow
Manchester
Manchuria
Mancini
Mandalay
Manfred
Mang
Manga
Mangold
Manhattan
Manila
Manipur
Manitoba
Mankin
Manley
Mann
Mannering
Mannheim
Mannich
Mansfield
Mansi
Manson
Mantel
M. Anthony Epstein
Manton
Mantoux
Mantua
Manu
Manuel
Manuel Velasco Suarez National Institute of Neurology and Neurosurgery
Mao Tse-tung
Maprik
Maputo
Maquet
Marabou
Maracaibo
Maran
Marburg
Marc
Marcel
Marcello
March
Marchac
Marcher
Marchesani
Marchese
Marchi
Marchiafava
Marci
Marconi
Marcus
Marcus Gunn
Marcy l'Etoile
Marden
Marek
Maremma
Marfan
Marfey
Margaret
Margarita Island
Margolis
Marguerite
Marian
Mariana Islands
Marianas
Marianne
Marie
Marietta
Marilyn
Marin
Marion
Marion Merrell Dow
Mariotte
Maritimes
Marituba
Markley
Markman
Markov
Marlborough
Marlowe
Marmaduke Burr Wright
Marocco
Maroteaux
Marquez
Marquis
Marrakech
Marram
Marriott
Marsala
Marsden
Marseilles
Marsh
Marshall
Marsidi
Martel
Martha
Martin
Martin Benno Schmidt
Martindale
Martinez
Martin Feeney Engman
Marting
Martin H. Rathke
Martinique
Martius
Marton
Martonosi
Maru
Maruyama
Marx
Mary
Maryland
Mascarene Islands
Mascolini
Maslach
Maslow
Mason
Massachusetts
Massasauga River
Masshoff
Massif Central
Masson
Masterson
Masud
Masuda
Masui
Masullo
Masuria
Matacan
Matamata
Matamoros
Matanzas
Matas
Matera
Mathe
Mathieu
Mathurin
Matin
Mato Grosso
Mato Grosso do Sul
Matson
Matsubara
Matsue
Matsui
Matsumoto
Matsuyama
Matta
Matthews
Matti
Mattox
Maudsley
Mauer
Mauger
Maui
Maule
Mauna Kea
Maunder
Maunier
Maurer
Mauriac
Maurice
Mauritian
Mauritius
Mavis
Maw
Maxcy
Maxin
Max Levin
Max Nonne
Max Theiler
May
Mayer
Mayes
Mayfield
Mayflower
Mayhew
Mayo
Mayombe
Mayoral
Mayo Robson
Mayotte
Maywood
Mazer
Mazza
Mazzoni
Mazzotti
McAlpine
McArdle
McAuley
McBride
McBurney
McCabe
McCall
McCallum
McCammon
McCannel
McCarey
McCarthy
McCauley
McClintock
McClung
McClure
McCollough
McCollum
McConkey
McCormick
McCreedy
McCune
McDermott
McDonald
McDonough
McFadden
McGee
McGhan
McGhan Medical
McGill
McGregor
McGuire
McIndoe
McInnes
McIntosh
McKeever
McKendrick
McKenzie
McKeown
McKissock
McKusick
McLean
McLeod
McMaster
McMurdo
McMurdo Dry Valleys
McMurdo Ice Shelf
McMurdo Sound
McMurray
McNab
McNaughton
McNeil
McPherson
McQueen
McReynolds
McVeigh
Meath
Mecca
Mechnikov
Meckel
Medac
Medan
Medda
Medea
Medellín
Medford
Medgenix
Medin
Medina
Meditec
Medi-Tech
Mediterranean
MEDLINE
Medtronic Xomed
Meerut
Meese
Megan
Megargee
Meier
Meige
Meigs
Meishan
Meissner
Mekong Delta
Mekong River
Mekong Valley
Melamed
Melanesia
Melbourne
Meldola
Meldrum
Mele
Meleney
Melinda
Melkersson
Melling
Mellone
Melly
Melnick
Melton
Melton Mowbray
Mely
Memorial
Memphis
Menangle
Mendel
Mendes
Mendocino
Menetrier
Meng
Menghini
Mengla
Mengo
Meniere
Menkes
Menorca
Menzbier
Mercier
Merck
Merck Sharp & Dohme
Meredith
Meretoja
Merieux
Merk
Merkel
Merle d'Aubigne
Merrell
Merrell Dow Pharmaceuticals
Merrifield
Merrill
Merrill Lynch
Merritt
Mersey
Merseyside
Merton
Mertz
Mery
Meryon
Merzbacher
Mesopotamia
Messer
Messick
Messina
Mester
Mesulam
MetaCyc
Metalsa
MetaMet
MetaNet
Metaponto
MetaStar
Metatools
Metayer
Metchnikoff
Methuselah
Metz
Meulengracht
Mexico
Meyer
Meyerhof
Meynert
M. Gerold
Miami
Mibelli
Michael
Michaelis
Michael Lesch
Michaelmas Cay
Michel
Michelin
Michigan
Michler
Michoacan
Mick
Mickey
Mickey Mouse
microflow
MicroGeneSys
Micronesia
Micronesian
Microstix
Microvasive
Midas
Middelburg
Middlesbrough
Middlesex
Middleton
Mid Glamorgan
Midlands
Midlothian
Miescher
Mignon
Miguel
Mikami
Mike
Mikulicz
Milan
Milano
Miles-Sankyo
Milford
Milgram
Milian
Millar
Millard
Miller
Milligan
Milliman
Millin
Millis
Millman
Milly
Milner
Milos
Milroy
Milstein
Miltenberger
Milwaukee
Minamata
Minamata Bay
Minamata City
Minas Gerais
Mincer
Mindanao
Mindoro
Mindoro Island
Minerva
Ming
Minneapolis
Minnesota
Minos
Minsk
Minter
Minzhu
Mioskowski
Miossec
Miotto
Miozzo
Mir
Mira
Miranda
Mirizzi
Miró
Misaki
Misawa
Mission Viejo
Mississippi
Missouri
Missy
Mitch
Mitchell
Mitek
Mitra
Mitrofanoff
Mitsuda
Mitty
Mixter
Miyairi
Miyajima
Miyako
Miyako Island
Miyama
Miyamoto
Miyazaki
Miyoshi
Mize
Mizukami
M. M. Papillon
Moab
Moabit
Moberg
Mobil
Mobil Oil
Mobin-Uddin
Mobitz
Modena
Modic
Modoc
Moebius
Moeller
Moens
Moersch
Mogadishu
Mogi
Mogil
Mogilev
Mogul
Mohamed
Mohr
Mohri
Mohs
Moira
Moira Lake
Moira River
Moise
Molasse
Moldova
Moline
Molise
Moll
Molla
Moller
Molly
Molokai
Moloney
Molteno
Mom
Mon
Mona
Monaco
Monaghan
Mona Lisa
Monchengladbach
Monckeberg
Moncrief
Monday
Mondini
Mondrian
Monge
Mongol
Mongolia
Monica
Moniz
Monmouth
Monod
Monongahela River
Monongahela Valley
Monreale
Monrovia
Monsanto
Monsel
Montagne
Mont Amba
Montana
Montanus
Mont Blanc
Monte Carlo
Montefiore
Monteggia
Monteith
Montenegro
Montero
Monterrey
Montessori
Montevideo
Montezuma
Montgomery
Montpelier
Montpellier
Montreal
Montrose
Mont Saint Aignan
Mont-Saint-Michel
Montserrat
Mont Tremblant
Monza
Moon
Mooney
Moore
Moorea
Mooren
Moorfields
Moorman
Moos
Mopeia
Moradabad
Morales
Moran
Morate
Moravia
Morax
Moray
Moreira
Morel
Morelet
Morelia
Morello
Moreno-López
Morgagni
Morgan
Mori
Moriguchi
Morin
Morioka
Morita
Moritz
Moritz K. Kaposi
Morkin
Morley
Morling
Moro
Morocco
Morpheus
Morquio
Morris
Morrison
Morro Bay
Morrow
Morse
Mort
Mortier
Mortimer
Morton
Morvan
Moschkowitz
Moschowitz
Moscow
Mosely
Moses
Mosher
Moshkovski
Mosque
Mossbauer
Mosser
Mote
Mothersill
Moulin
Mounier
Mount Elgon
Mount Unzen
Mount Vernon
Mousseau
Movar
Movat
Mowat
Moy
Moyer
Moyle
Moynahan
Moynihan
Moyo
Mozambique
Mozart
Mpwapwa
MT
Mt. Elgon
Mt. Unzen
Mt. Vernon
Mucha
Muckle
Mudd
Mudde
Mueller
Muenchen
Muenster
Mufti
Muhammad
Muir
Mulago
Mulder
Mulla
Muller
Mulligan
Multan
Mulungu do Morro
Mulvihill
Mumford
Mummery
Munchausen
Munchen
Munger
Munich
Munro
Munson
Munster
Murakami
Murayama
Murchison
Murcia
Murdoch
Muriel
Murlin
Murmansk
Murnau
murphy
Murphy
Murray
Murrell
Murry
Muscovite
Muscovy
Muskogee
Musser
Musset
Mustard
Mustardé
Mutch
Muthen
Müthing
MVS-NINN
Myanmar
Myers
Myerson
Myhre
Mylan
Myriam
Myron
Mysore
Nace
Nachlas
Naegeli
Nagao
Nagasaki
Nagase
Nagatsu
Nagel
Nageotte
Nagorno-Karabakh
Nagornyi Karabakh
Nagoya
Nagpur
Nain
Nairn
Nairobi
Naish
Najjar
Najman
Nakai
Nakajima
Nakamura
Nakano
Nakayama
Nally
Namaqualand
Namibia
Namibian
Nanchang
Nancy
Nanjing
Nanking
Nanning
Nanno
Napa
Napier
Naples
Napoleon
Napoleon I
Napoleon II
Napoleon III
Napoli
Napu Valley
Nardi
Narragansett
Narragansett Bay
Narva
Nash
Nashold
Nashville
Nathans
Naughton
Naumoff
Nauru
Navar
Navarro
Nave
Navojoa
Neal
Neapolis
Nebel
Nebraska
Necker
Needham
Needleman
Needles
Neelsen
Neely
Neer
Neethling
Negishi
Negri
Negus
Neide
Neil
Neill
Neisser
Neitz
Nelaton
Nellore
Nelly
Nelson
Nemethy
Nepal
Neptune
Nernst
Nero
Nesbit
Nesselrode
Nester
Nestler
Nestor
Netherlands
Netherlands Antilles
Netherlands East Indies
Netherton
Nettleship
Neubauer
Neuhauser
Neumann
Neuquen
NeuroControl
Nev.
Nevada
Neven
Neveu
Neville
Nevin
Nevis
Nevo
Newark
New Brunswick
Newbury
Newcastle
New England
Newfoundland
New Guinea
Newham
New Hampshire
Newing
Newington
New Jersey
New London
Newman
Newmarket
New Mexico
New Orleans
Newport
Newsome
New South Wales
Newsweek
Newton
New York
New York City
New Zealand
NeXstar
Nezelof
Ngai
Niagara
Nicaragua
Nicholas
Nichols
Nickle
Nickles
Nicol
Nicola
Nicolas
Nicolau
Nicolaus
Nicole
Nicolle
Nicosia
Nielsen
Nielson
Niemann
Niemeyer
Nieuwegein
Nievergelt
Niger
Nigeria
Niigata
Niikawa
Nijhuis
Nijmegen
Nikolowski
Nikolsky
Nile
Nilsen
Nilsson
Nina
Nippon
Nirenberg
Nishihara
Nishiki
Nishimori
Nishinomiya
Nissen
Nissl
Niteroi
Nitta
Niue
Niue Island
Niven
Nixon
Nizam
Noah
Nobel
Nobel Biocare
Nocard
Nogales
Noisette
Noisy-Le-Grand
Noll
Nomarski
Nome
Nomina Anitomica
Nomoto
Nonaka
Nong
Nong Khai
Nong-Sarai
Nonne
Nonomura
Noonan
Noord-Brabant
Nora
Nordenfelt
Nordmann
Nordrhein
Nordrhein-Westfalen
Norfolk
Norian
Norlander
Norma
Normandy
Norman Thomas Kirk
Norrie
Norris
Northampton
Northamptonshire
North Brabant
North Carolina
North Dakota
Northern Ireland
Northern Marianas
Northern Territory
Northland
North Rhine-Westphalia
North Sumatera
North Tyneside
Northumberland
North Vietnam
Northway
North Yorkshire
Norton
Norum
Norval
Norwalk
Norway
Norwich
Norwood
Nosel
Nothnagel
Nottingham
Nottinghamshire
Nouakchott
Novak
Nova Lima
Novara
Novartis
Nova Scotia
November
Novikoff
Novikov
Novokuznetsk
Novo Nordisk
Novo Nordisk Wellcome
Novosibirsk
Novoste
Novozymes
Noyes
N. R. Barrett
NT
Nucletron
Nuel
Nuffield
Nugent
Numata
Numerov
Nunavut
Nuremberg
Nutley
Nutter
Nutting
N.Y.
Nyanza
Nyasaland
Nyberg
Nyhan
N Yorks
Oahu
Oakland
Oakwood
Oaxaca
Ober
Oberhausen
Oberon
Obihiro
O'Brien
O'Callaghan
Oceania
Ochiai
Ochoa
Ochs
Ockelbo
October
Oddi
Odessa
Odessa Bay
Odin
O'Donoghue
Odysseus
Oedipus
Oersted
Offaly
Ofuji
Ogasawara
Ogasawara Islands
Ogawa
Ogeechee River
Ogilvie
Ogren
Ogura
Ohara
Ohio
Ohmeda
Ohtahara
Ohyama
Oka
Okabayashi
Okamoto
Okanagan
Okanagan Lake
Okanagan River
Okanagan Valley
Okayama
Okazaki
Okihiro
Oki Island
Okinawa
Oklahoma
Okuda
Olbert
Oldenburg
Oldham
Old World
Oliphant
Oliva
Olivecrona
Oliver
Ollier
Olmstead
Olmsted
Olsen
Olson
Olszewski
Olympia
Omaha
Oman
Ombredanne
Omdurman
Omenn
Omer
Ommaya
Omniscient
Omo
Omron
Omsk
O'Neal
Oneida
Oneida Lake
O'Neil
Onishi
Onondaga Lake
Ontario
Oort
Opah
Opalski
Opitz
Oporto
Oppenheim
Oppenheimer
Oram
Orbeli
Oregon
Orem
Organon Teknika
Orion
Orkney
Orleans
Orloff
Orlos
Orlov
Orly
Ormerod
Ormond
Ornstein
Oropouche
Orpheus
Orpington
Orticochea
Ortolani
Orungo
Orvieto
Orville
Ory
Osaka
Osasunbidea
Osborne
Oscar
Oseretsky
Osgood
Osler
Oslo
Osmond
Osmund
Osnabruck
Osorio
Ostend
Ostergotland
Oswald
Oswestry
Otago
Othman
Otsuka
Ottawa
Otto
Otto Binswanger
Otto Gerhard Karl Sprengel
Otto W. A. Schirmer
Ouagadougou
Ouchterlony
Oudtshoorn
Ouro Preto
Outaouais
Overhauser
Overman
Ovid
Oviedo
Owen Mumford
Owens
Owre
Owren
Oxford
Oxfordshire
Oxman
Oyama
Ozark
Ozdemir
Paama
Paar
Pablo
Pabna
Pacchioni
Pacific
Pacini
Packard
Padma
Padova
Padua
Paganini
Paget
Paigen
Pajot
Palade
palas
Palenque
Palermo
Palfrey
Palla
Pallas
Palleroni
Palli
Pallister
Palmaz
Palmer
Palmerston North
Palmyra
Palomo
Palta
Paltauf
Palyam
Pam
Pamela
Pampa
Pamplona
Panama
Panas
Panavia
Panay
Pancoast
Pandita
Pandora
Pandy
Paneth
Panizza
Panje
Panner
Panton
Panzer
Paolo
Papanicolaou
Papez
Papillon
Papineau
Pappenheimer
Papua
Papua New Guinea
Paquin
Paracelsus
Parada
Paraiba
Paramo
Parana
Paranchych
Pardo
Pare
Parel
Parenti
Parham
Parinaud
Paris
Parisi
Parke-Davis
Parker
Parkinson
Parkside
Parkville
Parliament
Parma
Parnas
Parnassus
Paroli
Parsonnet
Partington
Pasadena
Pascual
Pasha
Pasin
Pasini
Pasloska
Pasque
Passamaquoddy
Passavant
Passey
Passo Fundo
Passover
Pasteur
Patel
pater
Patera
Paterson
Patey
Pathum Thani
Patil
Paton
Patrice
Patricia
Patrick
Patrick Russell
Patte
Patten
Patterson
Paty
Paul
Paula
Paul Clemens von Baumgarten
Paulesco
Paul Gerson Unna
Pauli
Paulin
Pauling
Paul Kimmelstiel
Paul Lefevre
Paul R. Swyer
Pauly
Pautrier
Pavala
Pavia
Pavlov
Pavlova
Pavone
Pavy
Payen
Paynter
Pays de la Loire
Peabody
Pean
Pearce
Pearlman
Pearlstone
Pearson
Pease
Peaton
Pech
Pechora
Pechora River
Pechora Sea
Pecquet
Pedersen
Pederson
Pediococcus cerevisiae
Pedro
Peele
Pegasus
Pelger
Pelham
Pelisse
Pelizaeus
Pell
Pellegrini
Peller
Pelletier
Pelli
Pelling
Pellock
Peloponnesus
Pelton
Pemba
Pemba Island
Pemberton
Pembrokeshire
Penang
Pendred
Penelope
Penfold
Penghu
Penghu Island
Penghu Islets
Penhale
Penne
Pennebaker
Pennell
Penner
Penney
Penn Gaskell Skillern
Pennington
Pennsylvania
Penobscot Bay
Penobscot River
Pentecost
Pentland
Penttinen
Pentz
Peoria
Peper
Pepping
Percival
Percivall Pott
Percy
Pereira
Peretz
Pereyra
Perez-Diaz
Perianu
Perich
Perides
Perin
Perini
Perisic
Perkins
Perls
Perlsucht Tuberculin Original
Pernambuco
Peron
Perrault
Perret
Perrier
Perron
Perry
Perryman
Perseus
Persia
Persic
Persico
Perth
Perthes
Perthshire
Peru
Perugia
Pescara
Peshawar
Pessoa
Petah Tikva
Pete
Peter
Peterborough
Peterman
Peters
Petersen
Peterson
Petit
Peto
Petra
Petri
Petrie
Petrus
Petruschky
Petr Vasilyevich Nikolsky
Pettersson
Pettigrew
Peutz
Peyer
Peyronie
Peyton
Pezzer
Pfaundler
Pfeiffer
Pfizer
Phalen
Pharma
Pharmachem
Pharmachim
Pharmacia
Pharmacia Biotech
Pharmacia-Leiras
Pharmacia-Upjohn
Pharmacol
PhB
Phemister
Philadelphia
Philip
Philippa
Philippines
Philips
Phillip
Phillips
Phillipson
Phnom Penh
Phobos
Phocas
Phoebe
Phoebus
Photofrin
Piaget
Picardie
Piccadilly
Picene
Pick
Pickering
Pickett
Picot
Piddock
Piedmont
Pierini
Pierre
Pierre Fabre Medicament
Pierre Fauchard
Pierre Mauriac
Pierson
Piet
Pietrain
Pignon
Pilbara
Pilch
Pilcher
Pillsbury
Pilsen
Pimenta
Pinal
Pinard
Pindar
Pindborg
Pinder
Pinkster
Pinner
Pinole
Piot
Piper
Pirie
Pirital
Pirquet
Pisa
Piskacek
Pistole
Pitcairn
Pitcairn Island
Pithiviers
Pitt
Pittenger
Pitter
Pittsburgh
Placido
Planas
PLASMAPUR
Plato
Platt
Pleven
Plowman
Plummer
Plunkett
Pluto
Plymouth
Poco Grande
Podesta
Poe
Poely
Pogosta
Pointe a Pitre
Point Petre
Poirier
Poiseuille
Poisson
Poissy
Poitiers
Poitou
Pokot
Polack
Poland
Polderman
Pole
Poley
Polfa
Polgar
Poliklinik
Politano
Polivy
Polk
Poller
Pollitt
Polly
Polonia
Polycon
Polynesia
Polynesian
Pombo
Pomeroy
Pomme
Pomona
Pompe
Pompon
Ponce
Ponce de León
Poncelet
Pondicherry
Pong
Ponsonby
Ponta
Ponte
Ponte di Legno
Pontin
Ponton
Pooh
Poole
Poon
Poona
Popovich
Poppelreuter
Pordenone
Porte
Portela
Porteous
Portex
Portland
Portman
Porto
Porto Alegre
Porton
Porton Down
Port Phillip
Port Pirie
Portsmouth
Portugal
Posadas
Posavina
Poser
Posner
Poste
Postel
Postema
Postle
Postlind
Postma
Poston
Posy
Potain
Potomac
Potsdam
Pott
Potter
Pottinger
Pottle
Pouilly
Poulter
Pouly
Pounder
Povey
Powassan
Powderly
Powys
Poyart
Pozega
Poznan
Poznanski
Pozzan
Pozzi
Pozzuoli
PR
Prabhu
Prader
Prague
Prato
Pratt
Prausnitz
Preah Vihear
Preda
Predy
Pregl
Pregnosticon
Prego
Prehn
Preiss
Prell
Prelog
Premack
PREMEDLINE
Premus
Prentice
Prentice Hall
Presch
Prescott
Presky
Presov
Pressly
Prest
Presta
Presti
Preston
Prete
Preti
Pretoria
Preus
Prevan
Previc
Preyer
Pribram
Price
Priess
Prieto
Prill
Primavera
Prince Rupert
Princeton
Prinzmetal
Pristina
Pritchard
Pritzker
Privat
Probst
Procne
Procrustes
Procter
Procter and Gamble
Prodan
Proetz
Promega
Pronova Biocare
ProPac
Propper
Proskauer
Prosper Meniere
Proteus
Protopapas
Provine
Provox
Prowazek
Prudhomme
Pruitt
Prunelle
Prussia
Pruzansky
PsycINFO
Pudlak
Puebla
Pueblo Viejo
Puerto Claro
Puerto Rico
Puestow
Puget Sound
Pugh
Pulaski
Puli
Pullen
Pullman
Pulpdent
Punjab
Punta Arenas
Punta Salinas
Purdue
Purdy
Puri
Purina
Purkinje
Pusan
Putnam
Putti
Puumala
Puy-de-Dôme
Pygmalion
Pyle
Pyongyang
Pyotr V. Nikolsky
Pyrenees
Qalyub
Qian
Qing
Qingdao
Qing Dynasty
Quadra
Quan
Quasimodo
Quay
Quebec
Quechuan
Queckenstedt
Queens
Queensland
Quentin
Queretaro
Quervain
Quesada
Quetelet
Quetin
Quetta
Queyrat
Quidel
Quimby
Quincke
Quine
Quinto
Quinton
Quiring
Quisling
Quito
Rabat
Rabon
Rache
Rachel
Racker
Radcliffe
Radin
Radionics
Radom
R. A. Good
Raine
Rainer
Rainey
Raipur Rani
Raj
Rajasthan
Raleigh
Rallison
Ralph
Ralston
Ralston Purina
Ramage
Ramakrishna
Rambam
Ramirez
Ramon y Cajal
Ramos
Rampe
Ramsay
Ramses
Ramses II
Ramstedt
Rance
Rand
Randall
Randers
Randle
Randolph
Randot
Randox
Randwick
Rane
Rangoon
Rani
Ranikhet
Rankin
Ranvier
Raoult
Rapee
Rappaport
Rarotonga
Rasch
Rasheed
Rashkind
Rashomon
Rasmussen
Rasse
Rastelli
Rathbun
Rathke
Rauscher
Rautenstrauch
Ravenna
Ravitch
Rawalpindi
Rayer
Raymond
Raymond Cestan
Raynaud
R. D. Sweet
Reagan
Reaven
Reback
Rebecca
Reboul
Rebuck
Recife
Reckitt & Colman
Recklinghausen
Reclus
Redding
Reddy
Redman
Reeder
Reese
Refetoff
Reflolux
Refsum
Regel
Regen
Regensburg
Reggio Emilia
Regina
Rehbein
Rehovot
Reich
Reichert
Reichmann
Reichstein
Reid
Reifenstein
Reiki
Reil
Reilly
Reimann
Reims
Reinhold
Reinke
Reissner
Reiter
Remak
Rembrandt
Rendu
Renfrew
Renfrewshire
Renne
Reno
Renshaw
Rentschler
Republic of Korea
Republic of South Africa
République Fédérale Islamique des Comores
Reseda
Respocort
Reston
Rett
Reuter
Revelly
Reverdin
Revest
Revet
Reye
Reykjavik
Reynals
Reynaud
Reynell
Reynier
Reynolds
RFI des Comores
Rhine
Rhineland Palatinate
Rhode Island
Rhodes
Rhodesia
Rhone-Poulenc
Rhone-Poulenc Rorer
Ribeirao Preto
Ricardo
Riccardi
Riccardo Galeazzi
Rich
Richard
Richard Gorlin
Richard J. Bing
Richard Lawrence Day
Richards
Richardson
Richard Volkmann
Richard White Bernhard Ellis
Richman
Richmond
Richter
Rickert
Rickett
Rickham
Ricoeur
Ricordi
Riddell
Rideau
Rideau River
Rider
Ridgely
Riedel
Riegel
Rieger
Rieske
Riesman
Rietveld
Riff
Rigel
Riggs
Rijeka
Riker
Riley
Rill
Rille
Rimer
Rincon
Ringe
Ringer
Rinkel
Rinne
Rio
Rio Claro
Rio de Janeiro
Rio Hondo
Rioja
Rio Mamore
Rio Piedras
Rio Tinto
Ripley
Ripstein
Riss
Rissa
Risser
Ritchie
Ritgen
Ritscher
Ritter
Rittler
Riva
Riva-Rocci
Rivas
Rivas-Vaciamadrid
Rivel
Riverdale
Rivermead
Riverside
Riviere
Riyadh
Rizzoli
Roanoke
Robbins
Robert
Robert Abbe
Robert C. Moon
Robert J. Gorlin
Robert J. Graves
Robert Milton Zollinger
Roberts
Robertson
Robert William Smith
Robert W. Taylor
Robert W. Wood
Robin
Robinow
Robinson
Robles
Robson
Roch
Roche
Rochelle
Rocher
Rochester
Rochet
Rochette
Rochon
Rockman
Rockwood
Rocourt
Rodgers
Rodney
Rodrigues
Rodriguez
Roebuck
Roed
Roehampton
Rogan
Roger
Rogers
Rohrer
ROK
Rokeach
Rokitansky
Roland
Roloway
Roman
Romania
Romano
Romanov
Romberg
Rome
Romero
Romhilt
Romney
Romosinuano
Ron
Ronald
Roncador
Rondeau
Rondex
Rondle
Rondonia
Roosevelt
Roper
Rorschach
Rosai
Rosales
Rosario
Rösch
Roscommon
Rose
Rosel
Roselli
Rosemont
Rosen
Rosenbach
Rosenberg
Rosenbusch
Rosenmuller
Rosenthal
Rosenzweig
Rosewater
Rosner
Ross
Rosselli
Rosser
Rossetti
Rossman
Rossmann
Rostock
Rotella
Roth
Rother
Rothman
Rothmund
Rothschild
Rotter
Rotterdam
Roubaix
Roubin
Rouen
Rouget
Rous
Roussel
Roussin
Roussy
Routh
Rovigo
Rovinj
Rovsing
Rowan
Rowley
Rowson
Roy
Royce
Royer
Royster
R. R. A. Coombs
R.S.A.
Rubel
Rubens
Rubenstein
Rubin
Rubinstein
Rubio
Rucker
Rud
Rudas
Ruddock
Rudge
Rudolf
Rudolph Balint
Rudolphi
Rudolph Nissen
Rudy
Ruelle
Ruffin
Ruiz
Rully
Rummer
Rumpf
Runde
Rundle
Runeberg
Runge
Runyon
Rupert
Rupert Waterhouse
Ruppin
Rusch
Russ
Russe
Russell
Russell C. Brock
Russia
Ruth
Rüther
Rutherford
Rutland
Rutter
Rwanda
Rwandan
Ryan
Rynd
Ryukyu Islands
Ryukyus
Saale
Saale River
Sabah
Sabe
Sabin
Sabina
Sabinas
Sabina Seitz
Sabina Spielrein
Sabine
Sabino
Sabouraud
Saccomanno
Sachs
Sacks
Sacramento
Sacristan
Sade
Sadoul
Sadovsky
Sadowski
Saed
Sagami
Sagami Bay
Sagami River
Sagiyama
Sahara
Sahel
Sahli
Saida
Saigon
Saint Augustine
Saint Catherine
Saint Catherine's Island
Saint Croix
Saint Croix River
Saint Helena
Saint Kitts
Saint Kitts and Nevis
Saint-Malo
Saint Nazaire
Sainton
Saint Vincent and the Grenadines
Saipan
Saitama
Sakai
Sakaki
Sakazaki
Sakhalin
Saki
Sakti
Sakura
Sala
Salamon
Saldino
Salem
Salerno
Salin
Salin-de-Giraud
Salisbury
Salk
Sallis
Sally
Salmi
Salmon
Salomon
Salonica
Salta
Salter
Salthouse
Saltman
Salvador
Salzburg
Salzman
Sam
Samar
Samarkand
Samoa
Sampson
Samson
Samuel
Samuel A. Levine
Sanaa
Sanai
San Antonio
San Benito
San Bernardino
San Bernardino Mountains
Sanchez
Sanchez-Vives
Sancho
San Clemente
San Clemente Island
San Cristobal
Sandai
Sanders
Sandhoff
Sandifer
San Dimas
Sandra
Sandre
Sandwell
Sanfilippo
Sanford
San Francisco
San Francisco-Oakland Bay Area
Sanger
San Giovanni Rotondo
San Joaquin
San Juan
San Justo
Sankyo
Sankyo Pharma
San Luis Potosi
San Marino
San Nicolò
Sanofi
Sanofi-Synthelabo
Sanofi Winthrop
San Pablo
San Pedro Sula
San Pedro Toliman
San Quentin
San Quintin
San Salvador
San Salvador Island
Santa
Santa Barbara
Santa Casa de Misericordia
Santa Catalina
Santa Catalina Island
Santa Catarina
Santa Claus
Santa Cruz
Santa Cruz de Tenerife
Santa Monica
Santander
Santa Rosa
Santee
Santer
Santiago
Santini
Santo Domingo
Santorini
Santoro
Sant'Orsola
Santos
San Valentino
São José
Sao Jose do Rio Preto
Sao Jose dos Campos
São Luís
São Miguel
Sao Paolo
Sao Paulo
São Tomé
Sappho
Sapporo
Sarah
Sarajevo
Saraswati
Saratoga
Saratoga Springs
Sarawak
Sard
Sardegna
Sardinia
Saren
Sargasso Sea
Sarkar
Sarmiento
Saros Gulf
Sarrazin
Sartor
Sartre
Sasai
Saskatchewan
Saskatoon
Sassari
Sasse
Satan
Sato
Satomi
Satsuma
Sattler
Saturn
Saudi
Saudi Arabia
Sauer
Saul
Saunders
Saupe
Saurel
Sauter
Sauvé
Savannah
Savine
Sawyer
Saxe
Saxony
Saya
Sayer
Sayre
Scambler
Scandinavia
Scania
Scanzoni
Scarborough
Scarlett
Scarpa
Scatchard
Schacht
Schaffer
Schamberg
Schamroth
Schanz
Schardinger
Scharf
Schatz
Schatzki
Schaudinn
Schauer
Schaumann
Schauta
ScheBo-Tech
Schede
Scheerer
Scheff
Scheidt
Scheie
Schelling
Schenck
Schenk
Schering
Scherrer
Scheuermann
Schick
Schiff
Schild
Schilder
Schiller
Schima
Schimke
Schimmel
Schindler
Schiotz
Schirmer
Schlatter
Schlein
Schlemm
Schlepper
Schlesinger
Schleswig-Holstein
Schlichter
Schloss
Schlossman
Schlossmann
Schmalz
Schmelz
Schmid
Schmidt
Schmincke
Schmitt
Schmitz
Schmorl
Schnabel
Schneider
Schnell
Schnitzler
Schnyder
Schober
Schocket
Schoemaker
Schoenberg
Schoenlein
Schofield
Scholl
Scholtz
Scholz
Schonell
Schoner
Schonlein
Schor
Schottky
Schreiner
Schrenk
Schridde
Schroder
Schrodinger
Schroeder
Schroeter
Schroetter
Schroth
Schubert
Schuell
Schule
Schuller
Schultz
Schultze
Schulz
Schumann
Schwab
Schwachman
Schwalbe
Schwan
Schwann
Schwartz
Schwartze
Schwartzman
Schwarz
Schweizer
Schweninger
Schwerin
Schwinkerath
Scilly
Scilly Isles
Sclater
Sclavo
Scopinaro
Scotia
Scotia Sea
Scotland
Scott
Scranton
Scribner
Scrimshaw
Scriver
Scullion
Scythia
Sealy
Sealyham
Seamark
Searle
Searly
Seattle
Sebald
Sebastian
Sebright
Secca
Seck
Seckel
Secretan
Secunderabad
Seddon
Sedlacek
Seedman
Seegmiller
Seeley
Seely
Seesel
Seessel
Sefton
Segawa
Segovia
Séguin
Seidel
Seiler
Seine-Maritime
Seip
Seitz
Sekiguchi
Seldinger
Seligmann
Selkirk
Sellick
Selter
Selverstone
Selye
Semily
Semipalatinsk
Semitic
Sendai
Senear
Seneca
Senegal
Sengupta
Senning
Sensenbrenner
Senter
Seoul
Sepacell
Sepik
September
Serono
Serra da Estrela
Sertoli
Sertürner
Servat
Servier
Sessa
Sesti
Sesto San Giovanni
Seth
Setif
Setleis
Sevastopol
Severn
Severn Estuary
Severn River
Sevier
Sevier Desert
Sevilla
Seville
Sewell
Seymour
Sezary
Shackleton
Shadd
Shaddock
Shafer
Shah
Shahin
Shahjahanpur
Shakespeare
Sha-Lu
Shama
Shamir
Shan
Shandong
Shandong Province
Shang
Shanker
Shantou
Shap
Sharer
Shari
Sharon
Sharpless
Sharrard
Shastri
Shaul
Shaw
Shay
Shea
Shealy
Sheard
Shearman
Sheehan
Sheely
Sheffield
Shelby
Sheldon
Sheldrake
Shelly
Shenandoah
Shen Nong
Shenyang
Shenzhen
Shepherd
Sheppey
Sher
Sherbourne
Sheridan
Sherlock
Sherman
Sherrington
Sherwood
Sherwood Forest
Shetland
Shetland Island
Shew
Shiba
Shibata
Shida
Shieh
Shier
Shih
Shikoku
Shiley
Shil'nikov
Shiloh
Shimada
Shimizu
Shimo
Shimonoseki
Shinan-gun
Shiner
Shionogi
Shipman
Shira
Shirl
Shirley
Shively
Shizuoka
Shofu
Shohl
Shoji
Shoop
Shope
Shor
Shorthouse
Shott
Shou
Shouldice
Shprintzen
Shrapnell
Shreveport
Shroff
Shropshire
Shuba
Shuler
Shulman
Shute
Shwartzman
Sialy
Siam
Siberia
Siberian
Sibly
Sibson
Sicard
Sichuan
Sicily
Sidamo
Sideman
Sidi Bourouis
Sidi Bouzid
Sidi Moussa
Sidney
Sidney Ringer
Siegle
Siemerling
Siena
Sierra Leone
Sierra Morena
Sievers
sievert
Siewert
Sigmund
Sikkim
Sikorski
Silber
Silesia
Silness
Siltzbach
Silveira
Silver
Silverman
Silvermann
Silverstone
Simal
Simferopol
Simmonds
Simmons
Simon
Simonart
Simons
Simonsen
Simonton
Simon van Creveld
Simpson
Sims
Simson
Sinai
Sinaloa
Sinclair
Singapore
Singh
Singletary
Sinkiang
Sipe
Sir
Siracusa
Sir Aldo Castellani
Siriraj
Sisyphus
Siva
Sjogren
Skalica
Skamania
Skane
Skee
Skeel
Skeet
Skelly
Skelton
Skene
Skillern
Skinker
Skinner
Skoplje
Skye
Slattery
Sligo
Sloan
Slocum
Slone
Slosson
Slovakia
Slovak Republic
Slovenia
Sluder
Slusher
Sly
Smalling
Smellie
Smibert
Smiley
Smirnov
Smit
Smith
Smither
Smithers
Smith Kline Beecham
Smithy
Smolensk
Smoot
Smout
Smyrna
Smyth
Smythe
Snaith
Snape
Sneath
Sneddon
Snell
Snellen
Snider
Snijders
Snively
Snoek
Snow
Snowdon
Snyder
Sobel
Sobin
Sodom
Soehendra
Soemmering
Soemmerring
Soerensen
Sofia
Sofield
Soho
Sokolova
Sokolow
Sol
Solan
Solano
Solco Intermed
Soldado
Solente
Soliman
Solis
Solly
Solomon
Solvay
Somali
Somalia
Somaliland
Soma Weiss
Somers
Somerset
Sommer
Sone
Sones
Sonoda
Sontag
Sophia
Sora
Sorel
Sorenson
Soret
Sorgo
Sorin
Sorocaba
Sorocaba River
Sorokin
Sorsby
S. Orsola
Sory
Sosin
Soule
Soulier
Sousa
Souter
South
South Africa
South America
Southampton
South Carolina
South Dakota
Southdown
South Glamorgan
South Sefton
South Sumatera
South Tyneside
South Verona
Southwest
South Yorkshire
Souttar
Soxhlet
Spain
Spalding
Spang
Spano
Sparling
Spath
Spatz
Spaulding
Specht
Spee
Speedwell
Speer
Speight
Speilberger
Speiss
Speke
Speller
Spemann
Spenco
Speransky
Sperling
Sperry
Spicer
Spicewood
Spiegel
Spieghel
Spielberger
Spielmeyer
Spiers
Spiess
Spiker
Spindler
Spine-Tech
Spitsbergen
Spitz
Spitzer
Spivack
Spock
Spokane
Spooner
Spoor
Sporades
Sprague
Spreng
Sprengel
Sprenger
Sprent
Springfield
Sprinz
Sprott
Sprotte
Sprunt
Spurling
Spurway
Spyer
Squaw Creek
Squaw Valley
Squibb
Sri Lanka
Srinagar
Staar
Stacher
Stackebrandt
Staffieri
Stafford
Stafford-Miller
Staffordshire
Stafne
Stahl
Stahli
Stainton
Stalder
Stalingrad
Stallard
Stamey
Stamford
Stamm
Stamper
Stander
Stanescu
Stanford
Stanford University
Stang
Stanislav A.F. von Stein
Stanley
Stan-Lotter
Stanmore
Stansel
Starcher
Stardust
Starkey
Starling
Starn
Starr
Stary
Stass
Stata
Stauffer
St. Augustine
St. Catherine
St. Catherine's Island
St. Croix
St. Croix River
Stearly
Stearns
Steele
Steell
Steen
Steglitz
Stein
Steinberg
Steinbrocker
Steiner
Steinert
Steinhoff
Steinman
Steinmann
Stejneger
Stell
Steller
Stelling
Stelly
Stelzner
Stemmer
Stenger
Stenon
Stensen
Stenson
Stephen
Steris
Sterling Bunnell
Sterling-Winthrop
Sternberg
Stetler
Stetter
Steve
Stevely
Steven
Stevens
Stevenson
Stewart
Steyn
St. Helena
Stich
Stickland
Stieda
Stiefel
Stier
Stiles
Still
Stille
Stillman
Stilton
Stimson
Stine
Stirling
Stitt
St. Jude
St. Kitts
St. Kitts and Nevis
St. Malo
Stockholm
Stockmayer
Stockton
Stoddard
Stoeckel
Stokely
Stoke Mandeville
Stoke-on-Trent
Stoker
Stokes
Stoll
Stoner
Stony Brook
Stopa
Stoppa
Storz
Storz Instrument Company
Stott
Stowe
St. Petersburg
Strandberg
Strandness
Strang
Strasbourg
Strass
Strassman
Strathclyde
Straub
Strauss
Streptococcus mutans Ingbritt
Strich
Strickland
Strickler
Stringer
Strohl
Strom
Strombeck
Stromeyer
Strontian
Stroop
Strub
Strumpell
Stryer
Stuart
Stuber
Stull
Stunkard
Stupa
Stupp
Sturge
Sturm
Sturmdorf
Sturt
Stuttgart
St. Vincent and the Grenadines
Styria
Suaq Balimbing
Subae
Subae River
Subang
Subba
Subei
Subhash
Subik
Subotica
Subram
sub-Saharan Africa
Subtil
Sudan
Sudbury
Sudeck
Suffolk
Sugai
Sugarman
Sugawara
Sugihara
Suita
Suita City
Sulawesi
Sullivan
Sulzberger
Sumatera
Sumatra
Summerskill
Summitt
Sumner
Sumpter
Sunda Islands
Sunda Shelf
Sunday
Sunderland
Sunnyvale
Suomi
Superbarrio
SuperGen
Superman
Superstuff
Superti
Superti-Furga
Supperer
Surabaja
Surat
Surinam
Suriname
Susan
Sussex
Sutcliffe
Sutherland
Sutor
Sutter
Suttle
Sutton
Suwannee
Suwannee River
Suzanne
Suzuki
Svalbard
Svedberg
Svenson
Sverdlovsk
Swain
Swann
Swansea
Swanson
Swartz
Swaziland
Sweden
Swediaur
Swedish
Sweet
Sweetwater
Swellengrebel
Swenson
Swinger
Swingle
Swisher
SwissProt
Switzer
Switzerland
Swyer
Sydenham
Sydney
Sykes
Syktyvkar
Sylva
Sylvester
Sylvia
Sylvius
Symes
Symmers
Syntex
Syracuse
Syria
Syva
Szabo
Szczecin
Szondi
Szymanowski
Tabasco
Taber
Tabor
Tachibana
Tacoma
Taegu
Taejon
Taft
Tagawa
Tagil
Taha
Tahara
Tahiti
Taichung
Tai-dong
Taihu
Taihu Lake
Taillefer
Taimyr
Taimyr Peninsula
Tainer
Taipei
Taiping
Taira
Tait
Taiwan
Taiyuan
Tajikistan
Tajima
Takagi
Takahashi
Takamatsu
Takami
Takayama
Takayama City
Takayasu
Takeda
Takeuchi
Takimoto
Takizawa
Talairach
T. Alajouanine
Talal
Talalay
Talamanca
Talana
Talavera de la Reina
Talbot
Taling Chan
Tallahassee
Tallis
Tamaki
Tamaulipas
Tambour
Tambov
Tamm
Tampa
Tampere
Tampico
Tampion
Tamura
Tamworth
Tana
Tanaka
Tananarive
Tana River
Tanga
Tanganyika
Tangier
Tannenbaum
Tanner
Tanzania
Tanzanian
Tara
Tarai
Taranaki
Taranto
Tardo
Tarentaise
Tarin
Tarnier
Tarragona
Tarragona Province
Tarrant
Tarrier
Tartary
Tasaki
Tasdemir
Tashkent
Tasmania
Taube
Taunton
Taurus
Taussig
Tawara
Tay
Taybi
Taylor
Tayside
Teague
Tedder
Tedesco
Teebi
Tegucigalpa
Tehran
Teicher
Teichholz
Telang
Tel Aviv
Telemark
Telfer
Telford
Tembusu
Temin
Tempe
Tenasserim
Tenckhoff
Tenerife
Teng
Tenner
Tennessee
Tenorio
Tenover
Tenovuo
Tensaw
Tensaw River
Teotihuacan
Terasaki
Terato
Teresa
ter Haar
Terman
Termine
Terramycin
Terras
Terre Haute
Terrell
Terrence
Terrey
Terrien
Terrier
Terry
Terumo
Teschen
Teschler
Tesla
Tessier
Tethys
Tethys Sea
Teuscher
Texas
T. Grier Miller
Thacker
Thackray
Thailand
Thal
Thall
Thames
Thanksgiving
Thannhauser
Thar Desert
Thatcher
Thaxter
Thaysen
Theilen
Theiler
Theo
Theodore
Theophrastus
Thera
Theresa
Thermo-Cardiosystems
Thermo Electron
Thermo Finnigan
Thessaloniki
Thessaly
the Staatliche Frauenklinik und Hebammenschule
Thiers
Thiersch
Thill
Thionville
Thiry
Thisbe
Thissen
Thole
Thomas
Thomas Addison
Thomas A. Emmet
Thomas Bartholin
Thomas C. Martin
Thomas Fowler
Thomas Hale Ham
Thomas Hodgkin
Thomas James Muckle
Thomas P. Kearns
Thomas S. Cullen
Thomas Wharton
Thompson
Thoms
Thomsen
Thomson
Thor
Thorek
Thorn
Thorndike
Thorne
Thorning
Thornton
Thornwaldt
Thorp
Thorpe
Thost
Thouless
Thrace
Thrasher
Thule
Thung Song
Thwaite
Thygeson
Tian
Tianjin
Tibet
Tice
Tien
Tiffany
Tijuana
Tillamook
Tilley
Tillman
Tilly
Tim
Timan-Pechora Province
Timbo
Timmer
Timon
Timone
Timor
Timothy
Tina
Tindal
Tindall
Tinel
Tinto River
Tipper
Tipperary
Tippler
Tipton
Tison
Titmus
Titus
Titusville
Tlemcen
Toba
Tobias
Tocher
Tochigi
Tod
Todaro
Todd
Toft
Tofts
Toggenburg
Tokelau
Tokushima
Tokyo
Toledo
Tollefsen
Toller
Tom
Toman
Tomkins
Tompkins
Tondo
Tonkin
Toomey
Toowoomba
Topal
Topeka
Toranomon
Toray
Torii
Torino
Torkildsen
Tormelen
Tornwaldt
Toro
Toronto
Tororo
Torrance
Torres
Torres Strait Island
Torrey
Torsades de Pointes
Torsten
Tortola
Tossy
Tottori
Toulouse
Toupet
Touraine
Tourette
Touton
Towne
Townes
Toyama
Toyoake City
Toyobo
Tozer
Trager
Trakya
Tran
Trank
Tranquillo
Transcaucasia
Transvaal
Transylvania
Trantas
Tranter
Trapp
Traube
Travers
Traverso
Travis
Treacher
Treitz
Trenaunay
Trendelenberg
Trendelenburg
Trent
Trento
Trenton
Trepo
Trias
Tribec
Tricia
Tricot
Trier
Trieste
Trigg
Trillo
Tri-Med
Tri-Med Specialties
Trincomalee
Trinder
Trinidad
Tripoli
Tripos
Tri-Regol
Tristan da Cunha
Triton
Triton X-100
Trock
Troilus
Troms
Trondheim
Trott
Trousseau
Troutman
Trow
Troy
Troyer
Truax
Trucial Oman
Trucial States
Truelove
Trull
Truman
Trumper
Trussell
Tschermak
Tsuge
Tsumura
Tuan
Tubingen
Tucker
Tucovic
Tucson
Tucuman
Tuesday
Tuffier
Tufts
Tula
Tulare
Tule Lake
Tullio
Tully
Tulsa
Tulving
Tung
Tunisia
Tuohy
Tupelo
Turck
Turco
Turcot
Turin
Turing
Turk
Turkey
Turkish
Turkmenia
Turkmenistan
Turku
Turlock
Turnbull
Turner
Turpin
Tuscaloosa
Tuscany
Tuskegee
Tutankhamen
Tutty
Tuvalu
Twain
Twort
Tye
Tyers
Tyndall
Tyne
Tyneside
Typhon
Tyrode
Tyrol
Tyrone
Tyuleniy Island
Tzanck
Uasin Gishu
Ubangi
Ubangi-Shari
Uberaba
Uberlandia
Uchida
Udayana
Udine
Udkoff
Udmurt Republic
Udon Thani
Uehlinger
Uganda
Uhl
Uji River
Ulan Bator
Ulco
Ulla
Ulleval
Ullrich
Ulsan
Ulsan Bay
Ulster
Ultraflex
Ultrapath
Ulyanovsk
Ulysses
Umatilla
Umpqua
Unal
Unamuno
Underwood
Undine
Ungar
Unger
Unipath
Unisa
United Arab Emirates
United Healthcare
United Kingdom
United Nations Educational Scientific and Cultural Organization
United Nations High Commission for Refugees
United Nations International Children's Emergency Fund
United States
United States Army
United States of America
United States Pharmacopeia
University of California, Los Angeles
University of California, San Francisco
Unland
Unna
Unno
Unsicker
Unson
Unterberger
Unterman
Unver
Unverricht
Unwin
Unzen
Upmark
Uppsala
Upton
Urakami
Urano
Uranus
Urbach
Urbino
Urogen
Ursula
Uruguay
US
Usher
USSR
Utah
Utica
Utrecht
Uttara Kannada
Uttar Pradesh
Uukuniemi
Uxbridge
Uzbekistan
Uzman
Vaal River
Vaasa
Vadum
Vaga
Vainio
Vair
Vakil
Val de Marne
Val-de-Travers
Valdivia
Valencia
Valente
Valenzuela
Valhalla
Vali
Valladolid
Vallauris
Valli
Valparaiso
Valsalva
van Beek
van Bogaert
van Bree
van Bruggen
van Buchem
Van Cauter
Van Cleve
Vancouver
van Creveld
van de Beek
Van de Graaff
van Delft
van den Ende
van den Hout
van den Oord
van de Pasch
Vanderbilt
van der Geest
van der Goot
Van der Graaff
van der Harten
van der Heijde
van der Heijden
van der Heyden
van der Lely
van der Meulen
van der Tweel
van der Veen
van der Waals
van der Walt
Van der Woude
van de Ven
van Deventer
van Dongen
van Dorp
Van Echteld
Vanessa
van Gehuchten
van Gelder
van Gieson
Van Gilder
van Gilse
Van Gogh
van Harten
Van Hoorn
van Koppen
Van Laer
van Lohuizen
Vannas
Vanner
Van Patten
van Rood
Van Slyke
van't Hoff
Vanuatu
van Veen
van Weely
Vaquez
Varadi
Varanasi
Vardy
Varela
Varian
Varian Medical Systems
Varlet
Varna
Varnier
Varón
Varuna
Vasquez
Vassal
Vassar
Vasterbotten
Vater
Vatican
Vatican City
Vaucher
Vaughan Pendred
Veblen
Vega
Vela
Vella
Velling
Venable
Venables
Veneto
Venezuela
Venezuelan
Venice
Venitt
Ventak
Venus
Vera
Veracruz
Veraguth
Verdine
Verhoeff
Verkasalo
Verkleij
Verly
Verma
Verma-Naumoff
Vermeer
Vermont
Vernant
Verner
Vernet
Verneuil
Vernon
Vernon Hills
Verocay
Veron
Verona
Veronese
Veronica
Verres
Versailles
Verviers
Vesalius
Vestal
Vester
Vianna
Vicenza
Vichy
Vickers
Vicksburg
Victor Assad Najjar
Victor Eisenmenger
Victor F. Marshall
Victoria
Viel
Vienna
Vientiane
Vietnam
Vieussens
Vilaine River
Vilardell-Tarres
Villanova
Villareal
Villaret
Ville
Villejuif
Vilna
Vilnyus
Vince
Vincent
Vineberg
Vining
Vinson
Virchow
Virginia
Virgo Cluster
Vishnu
Visick
Visser
Vistakon
Vistamarc
Vitalmetrics
Vitaly
Vitebsk
Vitoria
Vitória
Vives
Vivian
Vlaams-Brabant
Vladimir
Vladivostok
Vleminckx
Voet
Vogel
Voges
Vogt
Vohwinkel
Vojvodina
Volga
Volga River
Volgograd
Volhard
Volkmann
Volkov
Volta
von Ardenne
von Bremen
von Brunn
von Economo
von Frey
von Frisch
von Gierke
von Graefe
von Hacker
von Hippel
von Karman
von Kaulla
von Kossa
von Krogh
von Mering
von Meyenburg
von Monakow
von Neumann
von Pirquet
von Prowazek
von Recklinghausen
von Sallmann
von Schroetter
von Szent-Gyorgyi
von Willebrand
von Zumbusch
Vorarlberg
Voronezh
Vos
Vosges
Voyager
Vuillemin
Vulpiani
Vulpius
Vygon
Vygotsky
Waag
Waaler
Waardenburg
Wackenheim
Wacker
Wadd
Waddell
Wadi El Raiyan
Wad Medani
Wagler
Wagner
wagoner
Wagstaffe
Wahlund
Waikato
Wain
Wainer
Wainwright
Wakayama
Wakefield
Wakely
Wakerly
Wakwa
Waldemar
Waldenstroem
Waldenstrom
Waldeyer
Waldst
Wales
Walker
Wallace
Wallach
Wallal
Walla Walla
Walldius
Waller
Wallin
Wallingford
Wallis
Wallman
Walloon Brabant
Wallwork
Wally
Walnut Creek
Walsh
Walsh-Dray
Walt
Walter
Walthard
Walther
Walton
Wang
Wangensteen
Wanning
Warangal
Warburg
Ward
Wardill
Wardman
Wark
Warkany
Warner
Warrington
Warsaw
Wartenberg
Warthin
Warwick
Warwickshire
Washington
Washington, D.C.
Washio
Washtenaw
Wassel
Wassermann
Wassmund
Watabe
Watanabe
Waterbury
Waterford
Waterhouse
Waterloo
Waterlow
Watford
Watkins
Watson
Watt
Watts
Waugh
Wauters
Waverly
Waxman
Wayman
Wayne
Weatherly
Webber
weber
Weber
Webster
Wechsler
Weddell
Weddell Sea
Wedgwood
Wednesday
Weeks
Weening
Wegener
Wegner
Weibel
Weibull
Weigert
Weigl
Weil
Weill
Weinberg
Weinberger
Weiner
Weinstein
Weiser
Weiss
Welk
Wellcome
Wellcome Foundation
Wellington
Wells
Wellspring
Wels
Welti
Wenckebach
Wende
Wendell
Wengler
Wenzel
Wepman
Werdnig
Werkman
Werly
Werner
Wernicke
Wesselsbron
Wessex
Westbury
Westcott
Westergren
West Glamorgan
West Godavari
West Irian
Westland
Westling
West Lothian
Westmead
Westminster
Westmoreland
West Nile
Weston
Westphal
Westphalia
West Sussex
West Virginia
Westwood
Westwood-Squibb
West Yorkshire
Weyers
Whang
Wharton
Whatman
Wheatley
Wheatly
Wheeler
Whelan
Wherry
W. H. Howell
Whicker
Whipp
Whipple
Whitaker
Whitby
Whitcomb
White
Whitehall
Whitehouse
White Plains
Whitfield
Whitlock
Whitman
Whitmore
Whitnall
Whitney
Whittaker
Whitten
Whittier
Wichita
Wick
Wicklow
Widal
Widder
Widman
Widmark
Wieczorek
Wiedemann
Wiesbaden
Wiesel
Wieser
Wiethe
Wigand
Wiggers
Wiggins
Wight
Wilcox
Wilcoxon
Wildervanck
Wilding
Wiley
Wilga
Wilhelm
Wilhelm Ebstein
Wilhelm Friedrich von Ludwig
Wilhelm H. Erb
Wilk
Wilkerson
Wilkie
Wilkins
Wilkinson
Willamette
Willamette River
Willamette Valley
Willcox
Wille
Willebrand
Willer
Willi
William
William Adams
William Alexander
William Bowman
William Cowper
William E. Horner
William Fergusson
William F. Ganong
William Heberden
William Holmes Crosby, Jr.
William John Adie
William L. Nyhan, Jr.
William Mathieson Macleod
William Osler Abbott
Williams
Williamsburg
Williamson
William Warwick Wagstaffe
Willie
Willis
Willock
Willy
Wilmer Ophthalmological Institute
Wilmington
Wilms
Wilson
Wilton
Wiltse
Wiltshire
Winchester
Windle
Windsor
Winer
Wingate
Winkel
Winkelman
Winkelmann
Winnie
Winnipeg
Winslow
Winston-Salem
Winter
Winthrop
Winton
Wintrobe
Wirsung
Wisconsin
Wiseman
Wishard
Wiskott
Wisniewski
Wisse
Wissler
Wistar
Witter
Witting
Witts
Witwatersrand
Witzel
Woakes
Wobe
Wohlfart
Wolcott
Wold
Wolf
Wolfe
Wolff
Wolfgram
Wolfring
Wolman
Woltman
Wolverhampton
Womersley
Wood
Woodhouse
Woodhull
Wooding
Woodrow
Woodward
Wooley
Woolf
Woolwich
Worcester
Worcestershire
Woronin
Worster
Wratten
Wray
W. R. B. Robertson
Wright
Wrigley
Wrisberg
Wroclaw
Wuhan
Wullstein
Wurzburg
Wust
Wu-Wong
WV
Wycombe
Wyeth
Wyeth-Ayerst
Wyly
Wynn
Wyoming
Xian
Xinjiang
Xishuang Banna
Xomed
Yaba
Yabuuchi
Yagi
Yahr
Yakima
Yaksa
Yaksha
Yakutat Bay
Yakutsk
Yale
Yamada
Yamagata
Yamaguchi
Yamaguti
Yamamoto
Yamanaka
Yamanashi
Yamanouchi
Yan
Yanagawa
Yanbian
Yangtze
Yank
Yankauer
Yaquina Bay
Yaqui Valley
Yarborough
Yariv
Yarmouth
Yaroslavl
Yashiro
Yasuda
Yatsushiro
Yea
Yeats
Yee
Yekepa
Yenisei River
Yeo
Yerevan
Yesavage
Yi
Yip
Yogi
Yokkaichi
Yokohama
Yokosuka
Yonago
Yonkers
Yopougon
York
Yorkshire
Yoshida
Youden
Young
Youngstown
Yount
Yu
Yucaipa
Yucatan
Yucatecan
Yuen
Yuma
Yumoto
Yungas
Yungas Province
Yunis
Yvonne M. Barr
Zacharin
Zadik
Zagreb
Zak
Zaks
Zaman
Zambia
Zamboanga
Zamora
Zancolli
Zander
Zanella
Zante
Zanzibar
Zaporozhe
Zaragoza
Zareba
Zavanelli
Zavarzin
Zealand
Zee
Zeeman
Zehner
Zeis
Zeist
Zellweger
Zemni
Zeneca
Zenker
Zeus
Zhang
Zhdanov
Zhejiang
Ziegler
Ziehl
Ziguinchor
Zimbabwe Rhodesia
Zimmer
Zimmerman
Zincke
Zinger
Zink
Zinn
Zinsser
Zion
ZoBell
Zoe
Zollinger
Zollner
Zoon
Zucker
Zuckerkandl
Zuckerman
Zuelzer
Zumbusch
Zung
zur Hausen
Zurhelle
Zurich
Zutphen
Zwahlen
Zwanziger
Zwart
Zweymuller
Zylberberg
Zyma
Zymbal
